estimated,actual,error(%)
1.0129296600000001E7,1.020297618E7,-0.7221381163706511
2.967435953E7,2.9743483509999994E7,-0.2324004179831625
8136568.319999999,8152241.700000003,-0.19225852933192114
5114526.789999999,5103218.040000001,0.22160036885271192
5066883.73,5107003.75,-0.7855882228400468
9531061.57,9542833.959999999,-0.12336366795591541
6736566.300000001,6783202.38,-0.6875230516120786
5406507.07,5477630.629999999,-1.2984365833371039
1.6253576219999995E7,1.6297993209999997E7,-0.27253042400796346
8128892.280000001,8168146.4799999995,-0.48057659220624466
8097802.7200000025,8181513.020000001,-1.0231640504068875
4.859233422000002E7,4.8592177500000015E7,3.225210477679426E-4
1.8909035230000004E7,1.8980702560000002E7,-0.37757996456374693
1.4206386280000001E7,1.4253324630000003E7,-0.3293150981856328
6905295.779999999,6824747.069999999,1.1802446182082462
6735745.970000001,6805402.34,-1.0235452148153108
7416494.049999999,7464422.2200000025,-0.6420881427578682
2.0266748610000007E7,2.032623669E7,-0.2926664729298421
1.08450128E7,1.085758127E7,-0.11575754937912437
1.0814434169999998E7,1.086699245E7,-0.4836506534979804
6074555.0,6115780.5600000005,-0.6740850100089353
2.9446103929999992E7,2.9489611179999996E7,-0.14753415951957535
1.1134657089999996E7,1.1239133940000001E7,-0.9295809673392432
5388924.059999999,5456198.919999999,-1.232998667871155
7077070.650000001,7119214.91,-0.5919790388797076
4559201.04,4604505.460000001,-0.9839150022421919
5066883.73,5107003.75,-0.7855882228400468
5066883.73,5107003.75,-0.7855882228400468
8134213.370000003,8192697.420000001,-0.7138558523744178
5393238.280000001,5463872.84,-1.2927562933547088
5066883.73,5107003.75,-0.7855882228400468
5066883.73,5107003.75,-0.7855882228400468
8116711.0600000005,8172121.500000001,-0.6780422929345875
5393238.280000001,5463872.84,-1.2927562933547088
5406507.07,5477630.629999999,-1.2984365833371039
5406507.07,5477630.65,-1.2984369437176286
4559201.04,4604503.44,-0.983871563792346
5066883.73,5107003.75,-0.7855882228400468
5066883.73,5107003.75,-0.7855882228400468
5066883.73,5107003.75,-0.7855882228400468
5066883.73,5107003.75,-0.7855882228400468
5388924.059999999,5456198.919999999,-1.232998667871155
5393238.280000001,5463872.84,-1.2927562933547088
5393238.280000001,5463873.550000001,-1.2927691198124367
5406507.07,5477630.66,-1.2984371239078731
5406507.07,5477630.65,-1.2984369437176286
6074555.0,6115780.5600000005,-0.6740850100089353
6735745.970000001,6805403.75,-1.0235657215782286
6735745.970000001,6805400.92,-1.023524562605773
6736566.300000001,6783201.68,-0.6875128029511716
7077070.650000001,7119214.91,-0.5919790388797076
8116711.0600000005,8172121.500000001,-0.6780422929345875
8128892.280000001,8168146.4799999995,-0.48057659220624466
8134213.410000002,8192697.500000001,-0.7138563336434539
1.1134657089999996E7,1.123913463E7,-0.9295870495325199
5066883.73,5107003.75,-0.7855882228400468
5066883.73,5107003.75,-0.7855882228400468
5066883.73,5107003.75,-0.7855882228400468
3038569.9699999993,3083633.2,-1.461368038196012
6735246.529999998,6805581.659999999,-1.033491823533579
4559201.04,4604506.170000001,-0.9839302702031304
2.958200217E7,2.9637959290000003E7,-0.18880220278486332
5066883.73,5107003.75,-0.7855882228400468
