generation,min_fitness,mean_fitness,global_min,avg_time
0,161944.83000000002,4821310.232999999,161944.83000000002,89575.4
1,161944.83000000002,178761.4845,161944.83000000002,81522.55
2,161944.83000000002,161944.83000000002,161944.83000000002,75465.25
3,161944.83000000002,161944.83000000002,161944.83000000002,73393.6
4,161944.83000000002,161944.83000000002,161944.83000000002,69181.9
5,161944.83000000002,161944.83000000002,161944.83000000002,76808.0
6,161944.83000000002,161944.83000000002,161944.83000000002,71073.6
7,161944.83000000002,161944.83000000002,161944.83000000002,64596.5
8,161944.83000000002,161944.83000000002,161944.83000000002,55751.65
9,161944.83000000002,161944.83000000002,161944.83000000002,66911.6
10,161944.83000000002,161944.83000000002,161944.83000000002,75777.95
11,161944.83000000002,161944.83000000002,161944.83000000002,77309.55
12,161944.83000000002,161944.83000000002,161944.83000000002,74598.0
13,161944.83000000002,161944.83000000002,161944.83000000002,68215.55
14,161944.83000000002,161944.83000000002,161944.83000000002,76188.65
15,161944.83000000002,161944.83000000002,161944.83000000002,75719.4
16,161944.83000000002,161944.83000000002,161944.83000000002,80951.2
17,161944.83000000002,161944.83000000002,161944.83000000002,81970.9
18,161944.83000000002,161944.83000000002,161944.83000000002,73435.8
19,161944.83000000002,161944.83000000002,161944.83000000002,68212.55
20,161944.83000000002,161944.83000000002,161944.83000000002,68557.05
21,161944.83000000002,161944.83000000002,161944.83000000002,72116.6
22,161944.83000000002,161944.83000000002,161944.83000000002,76493.2
23,161944.83000000002,161944.83000000002,161944.83000000002,76868.1
24,161944.83000000002,161944.83000000002,161944.83000000002,77081.2
25,161944.83000000002,161944.83000000002,161944.83000000002,78083.7
26,161944.83000000002,161944.83000000002,161944.83000000002,64107.0
27,161944.83000000002,161944.83000000002,161944.83000000002,76668.25
28,161944.83000000002,161944.83000000002,161944.83000000002,76635.9
29,161944.83000000002,161944.83000000002,161944.83000000002,75985.45
30,161944.83000000002,161944.83000000002,161944.83000000002,68019.8
31,161944.83000000002,161944.83000000002,161944.83000000002,73085.8
32,161944.83000000002,161944.83000000002,161944.83000000002,73507.85
33,161944.83000000002,161944.83000000002,161944.83000000002,76795.7
34,161944.83000000002,161944.83000000002,161944.83000000002,72088.65
35,161944.83000000002,161944.83000000002,161944.83000000002,77900.85
36,161944.83000000002,161944.83000000002,161944.83000000002,76388.05
37,161944.83000000002,161944.83000000002,161944.83000000002,73358.05
38,161944.83000000002,161944.83000000002,161944.83000000002,79674.6
39,161944.83000000002,161944.83000000002,161944.83000000002,73138.05

Lowest score found with evolution up to last generation:
Boolean[F T F F T F T F T F F F F F F T F F F F T T T F F F F]: scored [161944.83000000002]
Score: 161944.83000000002
