generation,min_fitness,mean_fitness,global_min,avg_time
0,889121.48,3511893.9865,701736.64,175761.0
1,701736.64,1417238.0724999998,701736.64,112514.2
2,701736.64,971702.0454999999,701736.64,119073.0
3,701736.64,737400.1535,701736.64,142114.45
4,701736.64,701736.64,701736.64,160073.2
5,701736.64,701736.64,701736.64,173922.55
6,701736.64,701736.64,701736.64,170299.4
7,701736.64,701736.64,701736.64,163239.8
8,701736.64,701736.64,701736.64,143706.85
9,701736.64,701736.64,403571.96,160290.35
10,701736.64,701736.64,403571.96,150289.05
11,701736.64,701736.64,403571.96,162864.95
12,701736.64,701736.64,403571.96,169276.65
13,701736.64,701736.64,403571.96,262229.25
14,701736.64,701736.64,403571.96,201678.45
15,701736.64,701736.64,403571.96,197683.1
16,701736.64,701736.64,403571.96,183163.2
17,701736.64,701736.64,403571.96,202131.65
18,701736.64,701736.64,403571.96,265706.1
19,701736.64,701736.64,403571.96,190202.35
20,701736.64,701736.64,403571.96,345526.8
21,701736.64,701736.64,403571.96,170835.9
22,701736.64,701736.64,403571.96,182869.3
23,701736.64,701736.64,403571.96,167224.6
24,701736.64,701736.64,403571.96,161126.2
25,701736.64,701736.64,403571.96,170745.3
26,701736.64,701736.64,403571.96,149658.6
27,701736.64,701736.64,403571.96,159159.9
28,701736.64,701736.64,403571.96,183491.2
29,701736.64,701736.64,403571.96,156373.75
30,701736.64,701736.64,403571.96,168974.25
31,701736.64,701736.64,403571.96,169300.95
32,701736.64,701736.64,403571.96,164070.8
33,701736.64,701736.64,403571.96,175557.85
34,701736.64,701736.64,403571.96,188010.1
