CHROMOSOME COST = 3622092.920000001
ELAPSED TIME: 43908 ms.
CHROMOSOME COST = 3689953.1800000006
ELAPSED TIME: 47067 ms.
CHROMOSOME COST = 2528136.52
ELAPSED TIME: 50235 ms.
CHROMOSOME COST = 1591529.2600000005
ELAPSED TIME: 54037 ms.
CHROMOSOME COST = 889121.48
ELAPSED TIME: 57562 ms.
CHROMOSOME COST = 3705476.920000001
ELAPSED TIME: 53861 ms.
CHROMOSOME COST = 5766457.239999997
ELAPSED TIME: 39544 ms.
CHROMOSOME COST = 1874249.5099999998
ELAPSED TIME: 46990 ms.
CHROMOSOME COST = 4570824.36
ELAPSED TIME: 42024 ms.
CHROMOSOME COST = 6875181.819999997
ELAPSED TIME: 61117 ms.
CHROMOSOME COST = 1442848.45
ELAPSED TIME: 54341 ms.
CHROMOSOME COST = 8295456.14
ELAPSED TIME: 49869 ms.
CHROMOSOME COST = 3151862.909999999
ELAPSED TIME: 42637 ms.
CHROMOSOME COST = 3942993.5800000005
ELAPSED TIME: 38498 ms.
CHROMOSOME COST = 2185495.1000000006
ELAPSED TIME: 43337 ms.
CHROMOSOME COST = 3779907.460000002
ELAPSED TIME: 76587 ms.
CHROMOSOME COST = 5066032.799999999
ELAPSED TIME: 32245 ms.
CHROMOSOME COST = 1395537.5
ELAPSED TIME: 30612 ms.
CHROMOSOME COST = 3994683.55
ELAPSED TIME: 29784 ms.
CHROMOSOME COST = 1870039.0300000012
ELAPSED TIME: 93198 ms.
CHROMOSOME COST = 3689953.1800000006
ELAPSED TIME: 49109 ms.
CHROMOSOME COST = 1442848.45
ELAPSED TIME: 68499 ms.
CHROMOSOME COST = 1602473.49
ELAPSED TIME: 56512 ms.
CHROMOSOME COST = 701736.64
ELAPSED TIME: 115199 ms.
CHROMOSOME COST = 884953.8799999999
ELAPSED TIME: 64459 ms.
CHROMOSOME COST = 1624045.67
ELAPSED TIME: 82948 ms.
CHROMOSOME COST = 1588067.9800000002
ELAPSED TIME: 87757 ms.
CHROMOSOME COST = 821717.4000000001
ELAPSED TIME: 47821 ms.
CHROMOSOME COST = 7894504.029999994
ELAPSED TIME: 60613 ms.
CHROMOSOME COST = 935808.19
ELAPSED TIME: 61152 ms.
CHROMOSOME COST = 1442848.45
ELAPSED TIME: 79680 ms.
CHROMOSOME COST = 1442848.45
ELAPSED TIME: 75257 ms.
CHROMOSOME COST = 2315757.9200000004
ELAPSED TIME: 57147 ms.
CHROMOSOME COST = 1029871.5900000003
ELAPSED TIME: 90354 ms.
CHROMOSOME COST = 889121.48
ELAPSED TIME: 98257 ms.
CHROMOSOME COST = 889121.48
ELAPSED TIME: 70700 ms.
CHROMOSOME COST = 1908088.8799999997
ELAPSED TIME: 53776 ms.
CHROMOSOME COST = 1407990.89
ELAPSED TIME: 57851 ms.
CHROMOSOME COST = 1442848.45
ELAPSED TIME: 66322 ms.
CHROMOSOME COST = 1395537.5
ELAPSED TIME: 30970 ms.
CHROMOSOME COST = 701736.64
ELAPSED TIME: 79629 ms.
CHROMOSOME COST = 821717.4000000001
ELAPSED TIME: 47691 ms.
CHROMOSOME COST = 884953.8799999999
ELAPSED TIME: 56219 ms.
CHROMOSOME COST = 889121.48
ELAPSED TIME: 74229 ms.
CHROMOSOME COST = 889121.48
ELAPSED TIME: 62192 ms.
CHROMOSOME COST = 935808.19
ELAPSED TIME: 68327 ms.
CHROMOSOME COST = 1029871.5900000003
ELAPSED TIME: 69798 ms.
CHROMOSOME COST = 1395537.5
ELAPSED TIME: 36487 ms.
CHROMOSOME COST = 1407990.89
ELAPSED TIME: 54331 ms.
CHROMOSOME COST = 1442848.45
ELAPSED TIME: 63282 ms.
CHROMOSOME COST = 1442848.45
ELAPSED TIME: 47962 ms.
CHROMOSOME COST = 1442848.45
ELAPSED TIME: 49462 ms.
CHROMOSOME COST = 1442848.45
ELAPSED TIME: 50775 ms.
CHROMOSOME COST = 1588067.9800000002
ELAPSED TIME: 73217 ms.
CHROMOSOME COST = 1602473.49
ELAPSED TIME: 47374 ms.
CHROMOSOME COST = 1624045.67
ELAPSED TIME: 62595 ms.
CHROMOSOME COST = 1908088.8799999997
ELAPSED TIME: 51961 ms.
CHROMOSOME COST = 2315757.9200000004
ELAPSED TIME: 46062 ms.
CHROMOSOME COST = 3689953.1800000006
ELAPSED TIME: 44596 ms.
CHROMOSOME COST = 889121.48
ELAPSED TIME: 67195 ms.
CHROMOSOME COST = 889121.48
ELAPSED TIME: 57629 ms.
CHROMOSOME COST = 884953.8799999999
ELAPSED TIME: 55886 ms.
CHROMOSOME COST = 821717.4000000001
ELAPSED TIME: 45077 ms.
CHROMOSOME COST = 884953.8799999999
ELAPSED TIME: 56089 ms.
CHROMOSOME COST = 1442848.45
ELAPSED TIME: 63234 ms.
CHROMOSOME COST = 701736.64
ELAPSED TIME: 85055 ms.
CHROMOSOME COST = 1407990.89
ELAPSED TIME: 54663 ms.
CHROMOSOME COST = 889121.48
ELAPSED TIME: 69142 ms.
CHROMOSOME COST = 821717.4000000001
ELAPSED TIME: 42376 ms.
CHROMOSOME COST = 821717.4000000001
ELAPSED TIME: 43451 ms.
CHROMOSOME COST = 929635.1799999999
ELAPSED TIME: 53999 ms.
CHROMOSOME COST = 909084.4999999998
ELAPSED TIME: 59393 ms.
CHROMOSOME COST = 1257573.1300000004
ELAPSED TIME: 49345 ms.
CHROMOSOME COST = 1372221.8399999999
ELAPSED TIME: 49713 ms.
CHROMOSOME COST = 1442848.45
ELAPSED TIME: 53933 ms.
CHROMOSOME COST = 1442848.45
ELAPSED TIME: 52839 ms.
CHROMOSOME COST = 821717.4000000001
ELAPSED TIME: 46162 ms.
CHROMOSOME COST = 701736.64
ELAPSED TIME: 86376 ms.
CHROMOSOME COST = 701736.64
ELAPSED TIME: 81077 ms.
CHROMOSOME COST = 701736.64
ELAPSED TIME: 81148 ms.
CHROMOSOME COST = 701736.64
ELAPSED TIME: 76078 ms.
CHROMOSOME COST = 821717.4000000001
ELAPSED TIME: 46144 ms.
CHROMOSOME COST = 821717.4000000001
ELAPSED TIME: 43413 ms.
CHROMOSOME COST = 821717.4000000001
ELAPSED TIME: 44340 ms.
CHROMOSOME COST = 821717.4000000001
ELAPSED TIME: 42566 ms.
CHROMOSOME COST = 884953.8799999999
ELAPSED TIME: 53972 ms.
CHROMOSOME COST = 884953.8799999999
ELAPSED TIME: 55112 ms.
CHROMOSOME COST = 889121.48
ELAPSED TIME: 72815 ms.
CHROMOSOME COST = 889121.48
ELAPSED TIME: 57910 ms.
CHROMOSOME COST = 909084.4999999998
ELAPSED TIME: 64747 ms.
CHROMOSOME COST = 929635.1799999999
ELAPSED TIME: 60089 ms.
CHROMOSOME COST = 1029871.5900000003
ELAPSED TIME: 86067 ms.
CHROMOSOME COST = 1257573.1300000004
ELAPSED TIME: 54689 ms.
CHROMOSOME COST = 1372221.8399999999
ELAPSED TIME: 49680 ms.
CHROMOSOME COST = 1407990.89
ELAPSED TIME: 58606 ms.
CHROMOSOME COST = 1442848.45
ELAPSED TIME: 60674 ms.
CHROMOSOME COST = 1442848.45
ELAPSED TIME: 53094 ms.
CHROMOSOME COST = 701736.64
ELAPSED TIME: 83701 ms.
CHROMOSOME COST = 821717.4000000001
ELAPSED TIME: 48027 ms.
CHROMOSOME COST = 884953.8800000001
ELAPSED TIME: 61982 ms.
CHROMOSOME COST = 701736.64
ELAPSED TIME: 95072 ms.
CHROMOSOME COST = 701736.64
ELAPSED TIME: 79825 ms.
CHROMOSOME COST = 889121.48
ELAPSED TIME: 68583 ms.
CHROMOSOME COST = 705341.7
ELAPSED TIME: 54210 ms.
CHROMOSOME COST = 705341.7
ELAPSED TIME: 52309 ms.
CHROMOSOME COST = 864637.2700000003
ELAPSED TIME: 89823 ms.
CHROMOSOME COST = 701736.64
ELAPSED TIME: 92287 ms.
CHROMOSOME COST = 821717.4000000001
ELAPSED TIME: 44743 ms.
CHROMOSOME COST = 701736.64
ELAPSED TIME: 78630 ms.
CHROMOSOME COST = 701736.64
ELAPSED TIME: 79217 ms.
CHROMOSOME COST = 701736.64
ELAPSED TIME: 77455 ms.
CHROMOSOME COST = 701736.64
ELAPSED TIME: 81570 ms.
CHROMOSOME COST = 701736.64
ELAPSED TIME: 91138 ms.
CHROMOSOME COST = 701736.64
ELAPSED TIME: 85408 ms.
CHROMOSOME COST = 701736.64
ELAPSED TIME: 97559 ms.
CHROMOSOME COST = 701736.64
ELAPSED TIME: 105941 ms.
CHROMOSOME COST = 701736.64
ELAPSED TIME: 95185 ms.
CHROMOSOME COST = 701736.64
ELAPSED TIME: 82328 ms.
CHROMOSOME COST = 701736.64
ELAPSED TIME: 83771 ms.
CHROMOSOME COST = 701736.64
ELAPSED TIME: 87333 ms.
CHROMOSOME COST = 701736.64
ELAPSED TIME: 86126 ms.
CHROMOSOME COST = 701736.64
ELAPSED TIME: 82666 ms.
CHROMOSOME COST = 705341.7
ELAPSED TIME: 56262 ms.
CHROMOSOME COST = 705341.7
ELAPSED TIME: 53127 ms.
CHROMOSOME COST = 821717.4000000001
ELAPSED TIME: 43689 ms.
CHROMOSOME COST = 821717.4000000001
ELAPSED TIME: 43287 ms.
CHROMOSOME COST = 821717.4000000001
ELAPSED TIME: 45587 ms.
CHROMOSOME COST = 864637.2700000003
ELAPSED TIME: 83468 ms.
CHROMOSOME COST = 884953.8800000001
ELAPSED TIME: 61216 ms.
CHROMOSOME COST = 701736.64
ELAPSED TIME: 93636 ms.
CHROMOSOME COST = 701736.64
ELAPSED TIME: 76531 ms.
CHROMOSOME COST = 701736.64
ELAPSED TIME: 77646 ms.
CHROMOSOME COST = 701736.64
ELAPSED TIME: 80501 ms.
CHROMOSOME COST = 701736.64
ELAPSED TIME: 81800 ms.
CHROMOSOME COST = 701736.64
ELAPSED TIME: 79018 ms.
CHROMOSOME COST = 701736.64
ELAPSED TIME: 79748 ms.
CHROMOSOME COST = 701736.64
ELAPSED TIME: 90374 ms.
CHROMOSOME COST = 701736.64
ELAPSED TIME: 84507 ms.
CHROMOSOME COST = 701736.64
ELAPSED TIME: 82773 ms.
CHROMOSOME COST = 701736.64
ELAPSED TIME: 79012 ms.
CHROMOSOME COST = 701736.64
ELAPSED TIME: 82121 ms.
CHROMOSOME COST = 701736.64
ELAPSED TIME: 78720 ms.
CHROMOSOME COST = 701736.64
ELAPSED TIME: 79631 ms.
CHROMOSOME COST = 701736.64
ELAPSED TIME: 81499 ms.
CHROMOSOME COST = 701736.64
ELAPSED TIME: 77442 ms.
CHROMOSOME COST = 701736.64
ELAPSED TIME: 96185 ms.
CHROMOSOME COST = 701736.64
ELAPSED TIME: 88398 ms.
CHROMOSOME COST = 701736.64
ELAPSED TIME: 109076 ms.
CHROMOSOME COST = 701736.64
ELAPSED TIME: 93267 ms.
CHROMOSOME COST = 701736.64
ELAPSED TIME: 92018 ms.
CHROMOSOME COST = 701736.64
ELAPSED TIME: 82264 ms.
CHROMOSOME COST = 701736.64
ELAPSED TIME: 79327 ms.
CHROMOSOME COST = 701736.64
ELAPSED TIME: 84770 ms.
CHROMOSOME COST = 701736.64
ELAPSED TIME: 82000 ms.
CHROMOSOME COST = 701736.64
ELAPSED TIME: 75931 ms.
CHROMOSOME COST = 701736.64
ELAPSED TIME: 77501 ms.
CHROMOSOME COST = 701736.64
ELAPSED TIME: 82869 ms.
CHROMOSOME COST = 701736.64
ELAPSED TIME: 77567 ms.
CHROMOSOME COST = 701736.64
ELAPSED TIME: 77230 ms.
CHROMOSOME COST = 701736.64
ELAPSED TIME: 77594 ms.
CHROMOSOME COST = 701736.64
ELAPSED TIME: 83532 ms.
CHROMOSOME COST = 701736.64
ELAPSED TIME: 91929 ms.
CHROMOSOME COST = 701736.64
ELAPSED TIME: 82634 ms.
CHROMOSOME COST = 701736.64
ELAPSED TIME: 96874 ms.
CHROMOSOME COST = 701736.64
ELAPSED TIME: 116856 ms.
CHROMOSOME COST = 701736.64
ELAPSED TIME: 89860 ms.
CHROMOSOME COST = 701736.64
ELAPSED TIME: 77776 ms.
CHROMOSOME COST = 701736.64
ELAPSED TIME: 83094 ms.
CHROMOSOME COST = 701736.64
ELAPSED TIME: 87965 ms.
CHROMOSOME COST = 701736.64
ELAPSED TIME: 78915 ms.
CHROMOSOME COST = 701736.64
ELAPSED TIME: 74839 ms.
CHROMOSOME COST = 701736.64
ELAPSED TIME: 77645 ms.
CHROMOSOME COST = 701736.64
ELAPSED TIME: 81322 ms.
CHROMOSOME COST = 701736.64
ELAPSED TIME: 78995 ms.
CHROMOSOME COST = 701736.64
ELAPSED TIME: 83188 ms.
CHROMOSOME COST = 701736.64
ELAPSED TIME: 87139 ms.
CHROMOSOME COST = 701736.64
ELAPSED TIME: 86788 ms.
CHROMOSOME COST = 701736.64
ELAPSED TIME: 80269 ms.
CHROMOSOME COST = 701736.64
ELAPSED TIME: 83193 ms.
CHROMOSOME COST = 701736.64
ELAPSED TIME: 94480 ms.
CHROMOSOME COST = 701736.64
ELAPSED TIME: 100483 ms.
CHROMOSOME COST = 701736.64
ELAPSED TIME: 82623 ms.
CHROMOSOME COST = 701736.64
ELAPSED TIME: 79725 ms.
CHROMOSOME COST = 701736.64
ELAPSED TIME: 83187 ms.
CHROMOSOME COST = 701736.64
ELAPSED TIME: 83250 ms.
CHROMOSOME COST = 701736.64
ELAPSED TIME: 81340 ms.
CHROMOSOME COST = 701736.64
ELAPSED TIME: 81245 ms.
CHROMOSOME COST = 701736.64
ELAPSED TIME: 83394 ms.
CHROMOSOME COST = 701736.64
ELAPSED TIME: 81454 ms.
CHROMOSOME COST = 701736.64
ELAPSED TIME: 82130 ms.
CHROMOSOME COST = 701736.64
ELAPSED TIME: 88830 ms.
CHROMOSOME COST = 701736.64
ELAPSED TIME: 81427 ms.
CHROMOSOME COST = 701736.64
ELAPSED TIME: 81740 ms.
CHROMOSOME COST = 701736.64
ELAPSED TIME: 89753 ms.
CHROMOSOME COST = 701736.64
ELAPSED TIME: 81467 ms.
CHROMOSOME COST = 701736.64
ELAPSED TIME: 80594 ms.
CHROMOSOME COST = 701736.64
ELAPSED TIME: 77958 ms.
CHROMOSOME COST = 701736.64
ELAPSED TIME: 87924 ms.
CHROMOSOME COST = 701736.64
ELAPSED TIME: 84212 ms.
CHROMOSOME COST = 701736.64
ELAPSED TIME: 84265 ms.
CHROMOSOME COST = 701736.64
ELAPSED TIME: 80630 ms.
CHROMOSOME COST = 701736.64
ELAPSED TIME: 81509 ms.
CHROMOSOME COST = 701736.64
ELAPSED TIME: 86371 ms.
CHROMOSOME COST = 701736.64
ELAPSED TIME: 84442 ms.
CHROMOSOME COST = 701736.64
ELAPSED TIME: 86457 ms.
CHROMOSOME COST = 701736.64
ELAPSED TIME: 92659 ms.
CHROMOSOME COST = 701736.64
ELAPSED TIME: 86017 ms.
CHROMOSOME COST = 701736.64
ELAPSED TIME: 95173 ms.
CHROMOSOME COST = 701736.64
ELAPSED TIME: 90681 ms.
CHROMOSOME COST = 701736.64
ELAPSED TIME: 89860 ms.
CHROMOSOME COST = 701736.64
ELAPSED TIME: 92143 ms.
CHROMOSOME COST = 701736.64
ELAPSED TIME: 88188 ms.
CHROMOSOME COST = 701736.64
ELAPSED TIME: 86311 ms.
CHROMOSOME COST = 701736.64
ELAPSED TIME: 101179 ms.
CHROMOSOME COST = 701736.64
ELAPSED TIME: 91071 ms.
CHROMOSOME COST = 701736.64
ELAPSED TIME: 86936 ms.
CHROMOSOME COST = 701736.64
ELAPSED TIME: 81734 ms.
CHROMOSOME COST = 701736.64
ELAPSED TIME: 92175 ms.
CHROMOSOME COST = 701736.64
ELAPSED TIME: 86642 ms.
CHROMOSOME COST = 701736.64
ELAPSED TIME: 84553 ms.
CHROMOSOME COST = 701736.64
ELAPSED TIME: 85520 ms.
CHROMOSOME COST = 701736.64
ELAPSED TIME: 85507 ms.
CHROMOSOME COST = 701736.64
ELAPSED TIME: 91833 ms.
CHROMOSOME COST = 701736.64
ELAPSED TIME: 80944 ms.
CHROMOSOME COST = 701736.64
ELAPSED TIME: 83063 ms.
CHROMOSOME COST = 701736.64
ELAPSED TIME: 81637 ms.
CHROMOSOME COST = 701736.64
ELAPSED TIME: 85089 ms.
CHROMOSOME COST = 701736.64
ELAPSED TIME: 93131 ms.
CHROMOSOME COST = 701736.64
ELAPSED TIME: 82898 ms.
CHROMOSOME COST = 701736.64
ELAPSED TIME: 87631 ms.
CHROMOSOME COST = 701736.64
ELAPSED TIME: 84193 ms.
CHROMOSOME COST = 701736.64
ELAPSED TIME: 96504 ms.
CHROMOSOME COST = 701736.64
ELAPSED TIME: 97973 ms.
CHROMOSOME COST = 701736.64
ELAPSED TIME: 81893 ms.
CHROMOSOME COST = 701736.64
ELAPSED TIME: 79622 ms.
CHROMOSOME COST = 701736.64
ELAPSED TIME: 84240 ms.
CHROMOSOME COST = 701736.64
ELAPSED TIME: 78326 ms.
CHROMOSOME COST = 701736.64
ELAPSED TIME: 81628 ms.
CHROMOSOME COST = 701736.64
ELAPSED TIME: 77368 ms.
CHROMOSOME COST = 701736.64
ELAPSED TIME: 85695 ms.
CHROMOSOME COST = 701736.64
ELAPSED TIME: 84030 ms.
CHROMOSOME COST = 701736.64
ELAPSED TIME: 87134 ms.
CHROMOSOME COST = 701736.64
ELAPSED TIME: 78573 ms.
CHROMOSOME COST = 701736.64
ELAPSED TIME: 76865 ms.
CHROMOSOME COST = 701736.64
ELAPSED TIME: 85105 ms.
CHROMOSOME COST = 701736.64
ELAPSED TIME: 85876 ms.
CHROMOSOME COST = 701736.64
ELAPSED TIME: 87643 ms.
CHROMOSOME COST = 701736.64
ELAPSED TIME: 81057 ms.
CHROMOSOME COST = 701736.64
ELAPSED TIME: 81010 ms.
CHROMOSOME COST = 701736.64
ELAPSED TIME: 88167 ms.
CHROMOSOME COST = 701736.64
ELAPSED TIME: 84011 ms.
CHROMOSOME COST = 701736.64
ELAPSED TIME: 80537 ms.
CHROMOSOME COST = 701736.64
ELAPSED TIME: 84635 ms.
CHROMOSOME COST = 701736.64
ELAPSED TIME: 94457 ms.
CHROMOSOME COST = 701736.64
ELAPSED TIME: 87399 ms.
CHROMOSOME COST = 701736.64
ELAPSED TIME: 83311 ms.
CHROMOSOME COST = 701736.64
ELAPSED TIME: 84799 ms.
CHROMOSOME COST = 701736.64
ELAPSED TIME: 82182 ms.
CHROMOSOME COST = 701736.64
ELAPSED TIME: 86809 ms.
CHROMOSOME COST = 701736.64
ELAPSED TIME: 90032 ms.
CHROMOSOME COST = 701736.64
ELAPSED TIME: 81432 ms.
CHROMOSOME COST = 701736.64
ELAPSED TIME: 80017 ms.
CHROMOSOME COST = 701736.64
ELAPSED TIME: 82584 ms.
CHROMOSOME COST = 701736.64
ELAPSED TIME: 87774 ms.
CHROMOSOME COST = 701736.64
ELAPSED TIME: 78928 ms.
CHROMOSOME COST = 701736.64
ELAPSED TIME: 95988 ms.
CHROMOSOME COST = 701736.64
ELAPSED TIME: 91584 ms.
CHROMOSOME COST = 701736.64
ELAPSED TIME: 94275 ms.
CHROMOSOME COST = 701736.64
ELAPSED TIME: 101851 ms.
CHROMOSOME COST = 701736.64
ELAPSED TIME: 84937 ms.
CHROMOSOME COST = 701736.64
ELAPSED TIME: 93032 ms.
CHROMOSOME COST = 701736.64
ELAPSED TIME: 98029 ms.
CHROMOSOME COST = 701736.64
ELAPSED TIME: 92065 ms.
CHROMOSOME COST = 701736.64
ELAPSED TIME: 85884 ms.
CHROMOSOME COST = 701736.64
ELAPSED TIME: 82255 ms.
CHROMOSOME COST = 701736.64
ELAPSED TIME: 83364 ms.
CHROMOSOME COST = 701736.64
ELAPSED TIME: 78366 ms.
CHROMOSOME COST = 701736.64
ELAPSED TIME: 83458 ms.
CHROMOSOME COST = 701736.64
ELAPSED TIME: 78463 ms.
CHROMOSOME COST = 701736.64
ELAPSED TIME: 74747 ms.
CHROMOSOME COST = 701736.64
ELAPSED TIME: 78825 ms.
CHROMOSOME COST = 701736.64
ELAPSED TIME: 75662 ms.
CHROMOSOME COST = 701736.64
ELAPSED TIME: 80291 ms.
CHROMOSOME COST = 701736.64
ELAPSED TIME: 83209 ms.
CHROMOSOME COST = 701736.64
ELAPSED TIME: 80223 ms.
CHROMOSOME COST = 701736.64
ELAPSED TIME: 82180 ms.
CHROMOSOME COST = 701736.64
ELAPSED TIME: 82244 ms.
CHROMOSOME COST = 701736.64
ELAPSED TIME: 80461 ms.
CHROMOSOME COST = 701736.64
ELAPSED TIME: 81208 ms.
CHROMOSOME COST = 701736.64
ELAPSED TIME: 80695 ms.
CHROMOSOME COST = 701736.64
ELAPSED TIME: 81216 ms.
CHROMOSOME COST = 701736.64
ELAPSED TIME: 81939 ms.
CHROMOSOME COST = 701736.64
ELAPSED TIME: 84229 ms.
CHROMOSOME COST = 701736.64
ELAPSED TIME: 77284 ms.
CHROMOSOME COST = 701736.64
ELAPSED TIME: 81243 ms.
CHROMOSOME COST = 701736.64
ELAPSED TIME: 88389 ms.
CHROMOSOME COST = 701736.64
ELAPSED TIME: 84118 ms.
CHROMOSOME COST = 701736.64
ELAPSED TIME: 76094 ms.
CHROMOSOME COST = 701736.64
ELAPSED TIME: 83740 ms.
CHROMOSOME COST = 701736.64
ELAPSED TIME: 81180 ms.
CHROMOSOME COST = 701736.64
ELAPSED TIME: 78654 ms.
CHROMOSOME COST = 701736.64
ELAPSED TIME: 80093 ms.
CHROMOSOME COST = 701736.64
ELAPSED TIME: 78832 ms.
CHROMOSOME COST = 701736.64
ELAPSED TIME: 78743 ms.
CHROMOSOME COST = 701736.64
ELAPSED TIME: 78791 ms.
CHROMOSOME COST = 701736.64
ELAPSED TIME: 77272 ms.
CHROMOSOME COST = 701736.64
ELAPSED TIME: 76421 ms.
CHROMOSOME COST = 701736.64
ELAPSED TIME: 75820 ms.
CHROMOSOME COST = 701736.64
ELAPSED TIME: 84245 ms.
CHROMOSOME COST = 701736.64
ELAPSED TIME: 84236 ms.
CHROMOSOME COST = 701736.64
ELAPSED TIME: 88347 ms.
CHROMOSOME COST = 701736.64
ELAPSED TIME: 90483 ms.
CHROMOSOME COST = 701736.64
ELAPSED TIME: 91082 ms.
CHROMOSOME COST = 701736.64
ELAPSED TIME: 91330 ms.
CHROMOSOME COST = 701736.64
ELAPSED TIME: 82362 ms.
CHROMOSOME COST = 701736.64
ELAPSED TIME: 75284 ms.
CHROMOSOME COST = 701736.64
ELAPSED TIME: 77342 ms.
CHROMOSOME COST = 701736.64
ELAPSED TIME: 81450 ms.
CHROMOSOME COST = 701736.64
ELAPSED TIME: 78219 ms.
CHROMOSOME COST = 701736.64
ELAPSED TIME: 80959 ms.
CHROMOSOME COST = 701736.64
ELAPSED TIME: 82844 ms.
CHROMOSOME COST = 701736.64
ELAPSED TIME: 82044 ms.
CHROMOSOME COST = 701736.64
ELAPSED TIME: 88326 ms.
CHROMOSOME COST = 701736.64
ELAPSED TIME: 78649 ms.
CHROMOSOME COST = 701736.64
ELAPSED TIME: 81773 ms.
CHROMOSOME COST = 701736.64
ELAPSED TIME: 93415 ms.
CHROMOSOME COST = 701736.64
ELAPSED TIME: 86182 ms.
CHROMOSOME COST = 701736.64
ELAPSED TIME: 83917 ms.
CHROMOSOME COST = 701736.64
ELAPSED TIME: 85243 ms.
CHROMOSOME COST = 701736.64
ELAPSED TIME: 83546 ms.
CHROMOSOME COST = 701736.64
ELAPSED TIME: 85898 ms.
CHROMOSOME COST = 701736.64
ELAPSED TIME: 80477 ms.
CHROMOSOME COST = 701736.64
ELAPSED TIME: 79268 ms.
CHROMOSOME COST = 701736.64
ELAPSED TIME: 79826 ms.
CHROMOSOME COST = 701736.64
ELAPSED TIME: 82560 ms.
CHROMOSOME COST = 701736.64
ELAPSED TIME: 79645 ms.
CHROMOSOME COST = 701736.64
ELAPSED TIME: 81238 ms.
CHROMOSOME COST = 701736.64
ELAPSED TIME: 80213 ms.
CHROMOSOME COST = 701736.64
ELAPSED TIME: 79591 ms.
CHROMOSOME COST = 701736.64
ELAPSED TIME: 84550 ms.
CHROMOSOME COST = 701736.64
ELAPSED TIME: 82741 ms.
CHROMOSOME COST = 701736.64
ELAPSED TIME: 86378 ms.
CHROMOSOME COST = 701736.64
ELAPSED TIME: 85913 ms.
CHROMOSOME COST = 701736.64
ELAPSED TIME: 83403 ms.
CHROMOSOME COST = 701736.64
ELAPSED TIME: 91362 ms.
CHROMOSOME COST = 701736.64
ELAPSED TIME: 86710 ms.
CHROMOSOME COST = 701736.64
ELAPSED TIME: 86789 ms.
CHROMOSOME COST = 701736.64
ELAPSED TIME: 88218 ms.
CHROMOSOME COST = 701736.64
ELAPSED TIME: 83307 ms.
CHROMOSOME COST = 701736.64
ELAPSED TIME: 86310 ms.
CHROMOSOME COST = 701736.64
ELAPSED TIME: 85939 ms.
CHROMOSOME COST = 701736.64
ELAPSED TIME: 81479 ms.
CHROMOSOME COST = 701736.64
ELAPSED TIME: 91144 ms.
CHROMOSOME COST = 701736.64
ELAPSED TIME: 88847 ms.
CHROMOSOME COST = 701736.64
ELAPSED TIME: 87089 ms.
CHROMOSOME COST = 701736.64
ELAPSED TIME: 84191 ms.
CHROMOSOME COST = 701736.64
ELAPSED TIME: 96715 ms.
CHROMOSOME COST = 701736.64
ELAPSED TIME: 90611 ms.
CHROMOSOME COST = 701736.64
ELAPSED TIME: 95130 ms.
CHROMOSOME COST = 701736.64
ELAPSED TIME: 106027 ms.
CHROMOSOME COST = 701736.64
ELAPSED TIME: 92328 ms.
CHROMOSOME COST = 701736.64
ELAPSED TIME: 82673 ms.
CHROMOSOME COST = 701736.64
ELAPSED TIME: 83744 ms.
CHROMOSOME COST = 701736.64
ELAPSED TIME: 86928 ms.
CHROMOSOME COST = 403571.96
ELAPSED TIME: 81224 ms.
CHROMOSOME COST = 701736.64
ELAPSED TIME: 80465 ms.
CHROMOSOME COST = 701736.64
ELAPSED TIME: 81355 ms.
CHROMOSOME COST = 701736.64
ELAPSED TIME: 88556 ms.
CHROMOSOME COST = 701736.64
ELAPSED TIME: 80324 ms.
CHROMOSOME COST = 701736.64
ELAPSED TIME: 81703 ms.
CHROMOSOME COST = 701736.64
ELAPSED TIME: 88556 ms.
CHROMOSOME COST = 701736.64
ELAPSED TIME: 87406 ms.
CHROMOSOME COST = 701736.64
ELAPSED TIME: 90887 ms.
CHROMOSOME COST = 701736.64
ELAPSED TIME: 89363 ms.
CHROMOSOME COST = 701736.64
ELAPSED TIME: 98933 ms.
CHROMOSOME COST = 701736.64
ELAPSED TIME: 85002 ms.
CHROMOSOME COST = 701736.64
ELAPSED TIME: 90300 ms.
CHROMOSOME COST = 701736.64
ELAPSED TIME: 94646 ms.
CHROMOSOME COST = 701736.64
ELAPSED TIME: 94816 ms.
CHROMOSOME COST = 701736.64
ELAPSED TIME: 90586 ms.
CHROMOSOME COST = 701736.64
ELAPSED TIME: 92967 ms.
CHROMOSOME COST = 701736.64
ELAPSED TIME: 87979 ms.
CHROMOSOME COST = 701736.64
ELAPSED TIME: 93155 ms.
CHROMOSOME COST = 701736.64
ELAPSED TIME: 97437 ms.
CHROMOSOME COST = 701736.64
ELAPSED TIME: 85359 ms.
CHROMOSOME COST = 701736.64
ELAPSED TIME: 91490 ms.
CHROMOSOME COST = 701736.64
ELAPSED TIME: 91141 ms.
CHROMOSOME COST = 701736.64
ELAPSED TIME: 90688 ms.
CHROMOSOME COST = 701736.64
ELAPSED TIME: 84458 ms.
CHROMOSOME COST = 701736.64
ELAPSED TIME: 85224 ms.
CHROMOSOME COST = 701736.64
ELAPSED TIME: 84314 ms.
CHROMOSOME COST = 701736.64
ELAPSED TIME: 83317 ms.
CHROMOSOME COST = 701736.64
ELAPSED TIME: 81118 ms.
CHROMOSOME COST = 701736.64
ELAPSED TIME: 85560 ms.
CHROMOSOME COST = 701736.64
ELAPSED TIME: 84979 ms.
CHROMOSOME COST = 701736.64
ELAPSED TIME: 87618 ms.
CHROMOSOME COST = 701736.64
ELAPSED TIME: 83816 ms.
CHROMOSOME COST = 701736.64
ELAPSED TIME: 83195 ms.
CHROMOSOME COST = 701736.64
ELAPSED TIME: 87541 ms.
CHROMOSOME COST = 701736.64
ELAPSED TIME: 84810 ms.
CHROMOSOME COST = 701736.64
ELAPSED TIME: 91359 ms.
CHROMOSOME COST = 701736.64
ELAPSED TIME: 87774 ms.
CHROMOSOME COST = 701736.64
ELAPSED TIME: 96039 ms.
CHROMOSOME COST = 701736.64
ELAPSED TIME: 95106 ms.
CHROMOSOME COST = 701736.64
ELAPSED TIME: 89713 ms.
CHROMOSOME COST = 701736.64
ELAPSED TIME: 85242 ms.
CHROMOSOME COST = 701736.64
ELAPSED TIME: 85687 ms.
CHROMOSOME COST = 701736.64
ELAPSED TIME: 82273 ms.
CHROMOSOME COST = 701736.64
ELAPSED TIME: 90130 ms.
CHROMOSOME COST = 701736.64
ELAPSED TIME: 84506 ms.
CHROMOSOME COST = 701736.64
ELAPSED TIME: 84418 ms.
CHROMOSOME COST = 701736.64
ELAPSED TIME: 94287 ms.
CHROMOSOME COST = 701736.64
ELAPSED TIME: 86102 ms.
CHROMOSOME COST = 701736.64
ELAPSED TIME: 88166 ms.
CHROMOSOME COST = 701736.64
ELAPSED TIME: 87093 ms.
CHROMOSOME COST = 701736.64
ELAPSED TIME: 86436 ms.
CHROMOSOME COST = 701736.64
ELAPSED TIME: 84191 ms.
CHROMOSOME COST = 701736.64
ELAPSED TIME: 88131 ms.
CHROMOSOME COST = 701736.64
ELAPSED TIME: 86156 ms.
CHROMOSOME COST = 701736.64
ELAPSED TIME: 86662 ms.
CHROMOSOME COST = 701736.64
ELAPSED TIME: 91571 ms.
CHROMOSOME COST = 701736.64
ELAPSED TIME: 98304 ms.
CHROMOSOME COST = 701736.64
ELAPSED TIME: 91052 ms.
CHROMOSOME COST = 701736.64
ELAPSED TIME: 102070 ms.
CHROMOSOME COST = 701736.64
ELAPSED TIME: 87627 ms.
CHROMOSOME COST = 701736.64
ELAPSED TIME: 97049 ms.
CHROMOSOME COST = 701736.64
ELAPSED TIME: 98946 ms.
CHROMOSOME COST = 701736.64
ELAPSED TIME: 99608 ms.
CHROMOSOME COST = 701736.64
ELAPSED TIME: 87460 ms.
CHROMOSOME COST = 701736.64
ELAPSED TIME: 108479 ms.
CHROMOSOME COST = 701736.64
ELAPSED TIME: 93913 ms.
CHROMOSOME COST = 701736.64
ELAPSED TIME: 105039 ms.
CHROMOSOME COST = 701736.64
ELAPSED TIME: 100888 ms.
CHROMOSOME COST = 701736.64
ELAPSED TIME: 97518 ms.
CHROMOSOME COST = 701736.64
ELAPSED TIME: 95390 ms.
CHROMOSOME COST = 701736.64
ELAPSED TIME: 95393 ms.
CHROMOSOME COST = 701736.64
ELAPSED TIME: 97866 ms.
CHROMOSOME COST = 701736.64
ELAPSED TIME: 105283 ms.
CHROMOSOME COST = 701736.64
ELAPSED TIME: 96804 ms.
CHROMOSOME COST = 701736.64
ELAPSED TIME: 99823 ms.
CHROMOSOME COST = 701736.64
ELAPSED TIME: 103162 ms.
CHROMOSOME COST = 701736.64
ELAPSED TIME: 88290 ms.
CHROMOSOME COST = 701736.64
ELAPSED TIME: 94955 ms.
CHROMOSOME COST = 701736.64
ELAPSED TIME: 100569 ms.
CHROMOSOME COST = 701736.64
ELAPSED TIME: 90184 ms.
CHROMOSOME COST = 701736.64
ELAPSED TIME: 93276 ms.
CHROMOSOME COST = 701736.64
ELAPSED TIME: 91318 ms.
CHROMOSOME COST = 701736.64
ELAPSED TIME: 90113 ms.
CHROMOSOME COST = 701736.64
ELAPSED TIME: 85405 ms.
CHROMOSOME COST = 701736.64
ELAPSED TIME: 93314 ms.
CHROMOSOME COST = 701736.64
ELAPSED TIME: 86839 ms.
CHROMOSOME COST = 701736.64
ELAPSED TIME: 91914 ms.
CHROMOSOME COST = 701736.64
ELAPSED TIME: 101032 ms.
CHROMOSOME COST = 701736.64
ELAPSED TIME: 107816 ms.
CHROMOSOME COST = 701736.64
ELAPSED TIME: 90637 ms.
CHROMOSOME COST = 701736.64
ELAPSED TIME: 96441 ms.
CHROMOSOME COST = 701736.64
ELAPSED TIME: 103209 ms.
CHROMOSOME COST = 701736.64
ELAPSED TIME: 88654 ms.
CHROMOSOME COST = 701736.64
ELAPSED TIME: 88320 ms.
CHROMOSOME COST = 701736.64
ELAPSED TIME: 89441 ms.
CHROMOSOME COST = 701736.64
ELAPSED TIME: 91516 ms.
CHROMOSOME COST = 701736.64
ELAPSED TIME: 104161 ms.
CHROMOSOME COST = 701736.64
ELAPSED TIME: 95563 ms.
CHROMOSOME COST = 701736.64
ELAPSED TIME: 94226 ms.
CHROMOSOME COST = 701736.64
ELAPSED TIME: 98852 ms.
CHROMOSOME COST = 701736.64
ELAPSED TIME: 97681 ms.
CHROMOSOME COST = 701736.64
ELAPSED TIME: 90991 ms.
CHROMOSOME COST = 701736.64
ELAPSED TIME: 93081 ms.
CHROMOSOME COST = 701736.64
ELAPSED TIME: 92813 ms.
CHROMOSOME COST = 701736.64
ELAPSED TIME: 93588 ms.
CHROMOSOME COST = 701736.64
ELAPSED TIME: 97395 ms.
CHROMOSOME COST = 701736.64
ELAPSED TIME: 93888 ms.
CHROMOSOME COST = 701736.64
ELAPSED TIME: 106580 ms.
CHROMOSOME COST = 701736.64
ELAPSED TIME: 106310 ms.
CHROMOSOME COST = 701736.64
ELAPSED TIME: 133512 ms.
CHROMOSOME COST = 701736.64
ELAPSED TIME: 116987 ms.
CHROMOSOME COST = 701736.64
ELAPSED TIME: 130722 ms.
CHROMOSOME COST = 701736.64
ELAPSED TIME: 117133 ms.
CHROMOSOME COST = 701736.64
ELAPSED TIME: 109081 ms.
CHROMOSOME COST = 701736.64
ELAPSED TIME: 104640 ms.
CHROMOSOME COST = 701736.64
ELAPSED TIME: 99538 ms.
CHROMOSOME COST = 701736.64
ELAPSED TIME: 91461 ms.
CHROMOSOME COST = 701736.64
ELAPSED TIME: 103394 ms.
CHROMOSOME COST = 701736.64
ELAPSED TIME: 102551 ms.
CHROMOSOME COST = 701736.64
ELAPSED TIME: 94634 ms.
CHROMOSOME COST = 701736.64
ELAPSED TIME: 99965 ms.
CHROMOSOME COST = 701736.64
ELAPSED TIME: 90722 ms.
CHROMOSOME COST = 701736.64
ELAPSED TIME: 92864 ms.
CHROMOSOME COST = 701736.64
ELAPSED TIME: 91429 ms.
CHROMOSOME COST = 701736.64
ELAPSED TIME: 87579 ms.
CHROMOSOME COST = 701736.64
ELAPSED TIME: 89365 ms.
CHROMOSOME COST = 701736.64
ELAPSED TIME: 88817 ms.
CHROMOSOME COST = 701736.64
ELAPSED TIME: 86548 ms.
CHROMOSOME COST = 701736.64
ELAPSED TIME: 97946 ms.
CHROMOSOME COST = 701736.64
ELAPSED TIME: 86466 ms.
CHROMOSOME COST = 701736.64
ELAPSED TIME: 95072 ms.
CHROMOSOME COST = 701736.64
ELAPSED TIME: 84673 ms.
CHROMOSOME COST = 701736.64
ELAPSED TIME: 95927 ms.
CHROMOSOME COST = 701736.64
ELAPSED TIME: 89958 ms.
CHROMOSOME COST = 701736.64
ELAPSED TIME: 96764 ms.
CHROMOSOME COST = 701736.64
ELAPSED TIME: 88436 ms.
CHROMOSOME COST = 701736.64
ELAPSED TIME: 95131 ms.
CHROMOSOME COST = 701736.64
ELAPSED TIME: 99509 ms.
CHROMOSOME COST = 701736.64
ELAPSED TIME: 95984 ms.
CHROMOSOME COST = 701736.64
ELAPSED TIME: 89333 ms.
CHROMOSOME COST = 701736.64
ELAPSED TIME: 94948 ms.
CHROMOSOME COST = 701736.64
ELAPSED TIME: 100178 ms.
CHROMOSOME COST = 701736.64
ELAPSED TIME: 99809 ms.
CHROMOSOME COST = 701736.64
ELAPSED TIME: 92777 ms.
CHROMOSOME COST = 701736.64
ELAPSED TIME: 97972 ms.
CHROMOSOME COST = 701736.64
ELAPSED TIME: 90782 ms.
CHROMOSOME COST = 701736.64
ELAPSED TIME: 88368 ms.
CHROMOSOME COST = 701736.64
ELAPSED TIME: 102813 ms.
CHROMOSOME COST = 701736.64
ELAPSED TIME: 93924 ms.
CHROMOSOME COST = 701736.64
ELAPSED TIME: 98530 ms.
CHROMOSOME COST = 701736.64
ELAPSED TIME: 90003 ms.
CHROMOSOME COST = 701736.64
ELAPSED TIME: 173162 ms.
CHROMOSOME COST = 701736.64
ELAPSED TIME: 107891 ms.
CHROMOSOME COST = 701736.64
ELAPSED TIME: 111335 ms.
CHROMOSOME COST = 701736.64
ELAPSED TIME: 1538601 ms.
CHROMOSOME COST = 701736.64
ELAPSED TIME: 137248 ms.
CHROMOSOME COST = 701736.64
ELAPSED TIME: 104283 ms.
CHROMOSOME COST = 701736.64
ELAPSED TIME: 90988 ms.
CHROMOSOME COST = 701736.64
ELAPSED TIME: 91310 ms.
CHROMOSOME COST = 701736.64
ELAPSED TIME: 92248 ms.
CHROMOSOME COST = 701736.64
ELAPSED TIME: 97125 ms.
CHROMOSOME COST = 701736.64
ELAPSED TIME: 92239 ms.
CHROMOSOME COST = 701736.64
ELAPSED TIME: 122687 ms.
CHROMOSOME COST = 701736.64
ELAPSED TIME: 111143 ms.
CHROMOSOME COST = 701736.64
ELAPSED TIME: 92901 ms.
CHROMOSOME COST = 701736.64
ELAPSED TIME: 105660 ms.
CHROMOSOME COST = 701736.64
ELAPSED TIME: 108407 ms.
CHROMOSOME COST = 701736.64
ELAPSED TIME: 112564 ms.
CHROMOSOME COST = 701736.64
ELAPSED TIME: 109807 ms.
CHROMOSOME COST = 701736.64
ELAPSED TIME: 101026 ms.
CHROMOSOME COST = 701736.64
ELAPSED TIME: 116871 ms.
CHROMOSOME COST = 701736.64
ELAPSED TIME: 113103 ms.
CHROMOSOME COST = 701736.64
ELAPSED TIME: 106091 ms.
CHROMOSOME COST = 701736.64
ELAPSED TIME: 137644 ms.
CHROMOSOME COST = 701736.64
ELAPSED TIME: 105717 ms.
CHROMOSOME COST = 701736.64
ELAPSED TIME: 113451 ms.
CHROMOSOME COST = 701736.64
ELAPSED TIME: 112638 ms.
CHROMOSOME COST = 701736.64
ELAPSED TIME: 117172 ms.
CHROMOSOME COST = 701736.64
ELAPSED TIME: 108083 ms.
CHROMOSOME COST = 701736.64
ELAPSED TIME: 100661 ms.
CHROMOSOME COST = 701736.64
ELAPSED TIME: 115650 ms.
CHROMOSOME COST = 701736.64
ELAPSED TIME: 112328 ms.
CHROMOSOME COST = 701736.64
ELAPSED TIME: 105917 ms.
CHROMOSOME COST = 701736.64
ELAPSED TIME: 113022 ms.
CHROMOSOME COST = 701736.64
ELAPSED TIME: 99668 ms.
CHROMOSOME COST = 701736.64
ELAPSED TIME: 114952 ms.
CHROMOSOME COST = 701736.64
ELAPSED TIME: 105768 ms.
CHROMOSOME COST = 701736.64
ELAPSED TIME: 121058 ms.
CHROMOSOME COST = 701736.64
ELAPSED TIME: 101652 ms.
CHROMOSOME COST = 701736.64
ELAPSED TIME: 105466 ms.
CHROMOSOME COST = 701736.64
ELAPSED TIME: 115336 ms.
CHROMOSOME COST = 701736.64
ELAPSED TIME: 122506 ms.
CHROMOSOME COST = 701736.64
ELAPSED TIME: 118051 ms.
CHROMOSOME COST = 701736.64
ELAPSED TIME: 111191 ms.
CHROMOSOME COST = 701736.64
ELAPSED TIME: 106781 ms.
CHROMOSOME COST = 701736.64
ELAPSED TIME: 110754 ms.
CHROMOSOME COST = 701736.64
ELAPSED TIME: 107719 ms.
CHROMOSOME COST = 701736.64
ELAPSED TIME: 105710 ms.
CHROMOSOME COST = 701736.64
ELAPSED TIME: 128543 ms.
CHROMOSOME COST = 701736.64
ELAPSED TIME: 124567 ms.
CHROMOSOME COST = 701736.64
ELAPSED TIME: 111038 ms.
CHROMOSOME COST = 701736.64
ELAPSED TIME: 111323 ms.
CHROMOSOME COST = 701736.64
ELAPSED TIME: 109741 ms.
CHROMOSOME COST = 701736.64
ELAPSED TIME: 118941 ms.
CHROMOSOME COST = 701736.64
ELAPSED TIME: 133697 ms.
CHROMOSOME COST = 701736.64
ELAPSED TIME: 111168 ms.
CHROMOSOME COST = 701736.64
ELAPSED TIME: 119771 ms.
CHROMOSOME COST = 701736.64
ELAPSED TIME: 115196 ms.
CHROMOSOME COST = 701736.64
ELAPSED TIME: 107620 ms.
CHROMOSOME COST = 701736.64
ELAPSED TIME: 131848 ms.
CHROMOSOME COST = 701736.64
ELAPSED TIME: 122051 ms.
CHROMOSOME COST = 701736.64
ELAPSED TIME: 109973 ms.
CHROMOSOME COST = 701736.64
ELAPSED TIME: 119066 ms.
CHROMOSOME COST = 701736.64
ELAPSED TIME: 107572 ms.
CHROMOSOME COST = 701736.64
ELAPSED TIME: 110077 ms.
CHROMOSOME COST = 701736.64
ELAPSED TIME: 110406 ms.
CHROMOSOME COST = 701736.64
ELAPSED TIME: 119827 ms.
CHROMOSOME COST = 701736.64
ELAPSED TIME: 115775 ms.
CHROMOSOME COST = 701736.64
ELAPSED TIME: 118493 ms.
CHROMOSOME COST = 701736.64
ELAPSED TIME: 118957 ms.
CHROMOSOME COST = 701736.64
ELAPSED TIME: 113735 ms.
CHROMOSOME COST = 701736.64
ELAPSED TIME: 116362 ms.
CHROMOSOME COST = 701736.64
ELAPSED TIME: 108882 ms.
CHROMOSOME COST = 701736.64
ELAPSED TIME: 114731 ms.
CHROMOSOME COST = 701736.64
ELAPSED TIME: 119945 ms.
CHROMOSOME COST = 701736.64
ELAPSED TIME: 111094 ms.
CHROMOSOME COST = 701736.64
ELAPSED TIME: 108563 ms.
CHROMOSOME COST = 701736.64
ELAPSED TIME: 113570 ms.
CHROMOSOME COST = 701736.64
ELAPSED TIME: 108399 ms.
CHROMOSOME COST = 701736.64
ELAPSED TIME: 125727 ms.
CHROMOSOME COST = 701736.64
ELAPSED TIME: 127509 ms.
CHROMOSOME COST = 701736.64
ELAPSED TIME: 105894 ms.
CHROMOSOME COST = 701736.64
ELAPSED TIME: 111173 ms.
CHROMOSOME COST = 701736.64
ELAPSED TIME: 111688 ms.
CHROMOSOME COST = 701736.64
ELAPSED TIME: 132713 ms.
CHROMOSOME COST = 701736.64
ELAPSED TIME: 116486 ms.
CHROMOSOME COST = 701736.64
ELAPSED TIME: 116753 ms.
CHROMOSOME COST = 701736.64
ELAPSED TIME: 114998 ms.
CHROMOSOME COST = 701736.64
ELAPSED TIME: 112312 ms.
CHROMOSOME COST = 701736.64
ELAPSED TIME: 113326 ms.
CHROMOSOME COST = 701736.64
ELAPSED TIME: 116223 ms.
CHROMOSOME COST = 701736.64
ELAPSED TIME: 124624 ms.
CHROMOSOME COST = 701736.64
ELAPSED TIME: 107604 ms.
CHROMOSOME COST = 701736.64
ELAPSED TIME: 112542 ms.
CHROMOSOME COST = 701736.64
ELAPSED TIME: 107427 ms.
CHROMOSOME COST = 701736.64
ELAPSED TIME: 125684 ms.
CHROMOSOME COST = 701736.64
ELAPSED TIME: 110565 ms.
CHROMOSOME COST = 701736.64
ELAPSED TIME: 109887 ms.
CHROMOSOME COST = 701736.64
ELAPSED TIME: 113155 ms.
CHROMOSOME COST = 701736.64
ELAPSED TIME: 116458 ms.
CHROMOSOME COST = 701736.64
ELAPSED TIME: 123668 ms.
CHROMOSOME COST = 701736.64
ELAPSED TIME: 102977 ms.
CHROMOSOME COST = 701736.64
ELAPSED TIME: 112776 ms.
CHROMOSOME COST = 701736.64
ELAPSED TIME: 107020 ms.
CHROMOSOME COST = 701736.64
ELAPSED TIME: 130712 ms.
CHROMOSOME COST = 701736.64
ELAPSED TIME: 105236 ms.
CHROMOSOME COST = 701736.64
ELAPSED TIME: 109041 ms.
CHROMOSOME COST = 701736.64
ELAPSED TIME: 124972 ms.
CHROMOSOME COST = 701736.64
ELAPSED TIME: 116641 ms.
CHROMOSOME COST = 701736.64
ELAPSED TIME: 107527 ms.
CHROMOSOME COST = 701736.64
ELAPSED TIME: 127442 ms.
CHROMOSOME COST = 701736.64
ELAPSED TIME: 112104 ms.
CHROMOSOME COST = 701736.64
ELAPSED TIME: 111489 ms.
CHROMOSOME COST = 701736.64
ELAPSED TIME: 133512 ms.
CHROMOSOME COST = 701736.64
ELAPSED TIME: 105093 ms.
CHROMOSOME COST = 701736.64
ELAPSED TIME: 110409 ms.
CHROMOSOME COST = 701736.64
ELAPSED TIME: 119439 ms.
CHROMOSOME COST = 701736.64
ELAPSED TIME: 110430 ms.
CHROMOSOME COST = 701736.64
ELAPSED TIME: 107971 ms.
CHROMOSOME COST = 701736.64
ELAPSED TIME: 121954 ms.
CHROMOSOME COST = 701736.64
ELAPSED TIME: 109147 ms.
CHROMOSOME COST = 701736.64
ELAPSED TIME: 107839 ms.
CHROMOSOME COST = 701736.64
ELAPSED TIME: 125903 ms.
CHROMOSOME COST = 701736.64
ELAPSED TIME: 107368 ms.
CHROMOSOME COST = 701736.64
ELAPSED TIME: 100783 ms.
CHROMOSOME COST = 701736.64
ELAPSED TIME: 123833 ms.
CHROMOSOME COST = 701736.64
ELAPSED TIME: 103912 ms.
CHROMOSOME COST = 701736.64
ELAPSED TIME: 109250 ms.
CHROMOSOME COST = 701736.64
ELAPSED TIME: 110319 ms.
CHROMOSOME COST = 701736.64
ELAPSED TIME: 112400 ms.
CHROMOSOME COST = 701736.64
ELAPSED TIME: 133834 ms.
CHROMOSOME COST = 701736.64
ELAPSED TIME: 109333 ms.
CHROMOSOME COST = 701736.64
ELAPSED TIME: 109508 ms.
CHROMOSOME COST = 701736.64
ELAPSED TIME: 124936 ms.
CHROMOSOME COST = 701736.64
ELAPSED TIME: 105005 ms.
CHROMOSOME COST = 701736.64
ELAPSED TIME: 107480 ms.
CHROMOSOME COST = 701736.64
ELAPSED TIME: 112434 ms.
CHROMOSOME COST = 701736.64
ELAPSED TIME: 107188 ms.
CHROMOSOME COST = 701736.64
ELAPSED TIME: 120934 ms.
CHROMOSOME COST = 701736.64
ELAPSED TIME: 107432 ms.
CHROMOSOME COST = 701736.64
ELAPSED TIME: 107349 ms.
CHROMOSOME COST = 701736.64
ELAPSED TIME: 121483 ms.
CHROMOSOME COST = 701736.64
ELAPSED TIME: 109727 ms.
CHROMOSOME COST = 701736.64
ELAPSED TIME: 108398 ms.
CHROMOSOME COST = 701736.64
ELAPSED TIME: 107969 ms.
CHROMOSOME COST = 701736.64
ELAPSED TIME: 107006 ms.
CHROMOSOME COST = 701736.64
ELAPSED TIME: 108235 ms.
CHROMOSOME COST = 701736.64
ELAPSED TIME: 129931 ms.
CHROMOSOME COST = 701736.64
ELAPSED TIME: 104925 ms.
CHROMOSOME COST = 701736.64
ELAPSED TIME: 107641 ms.
CHROMOSOME COST = 701736.64
ELAPSED TIME: 103920 ms.
CHROMOSOME COST = 701736.64
ELAPSED TIME: 125189 ms.
CHROMOSOME COST = 701736.64
ELAPSED TIME: 108163 ms.
CHROMOSOME COST = 701736.64
ELAPSED TIME: 105189 ms.
CHROMOSOME COST = 701736.64
ELAPSED TIME: 116716 ms.
CHROMOSOME COST = 701736.64
ELAPSED TIME: 108648 ms.
Aug 18, 2015 7:00:03 PM ServerCommunicatorAdmin reqIncoming
WARNING: The server has decided to close this client connection.
Aug 18, 2015 7:00:04 PM ServerCommunicatorAdmin reqIncoming
WARNING: The server has decided to close this client connection.
Aug 18, 2015 7:00:04 PM ServerCommunicatorAdmin reqIncoming
WARNING: The server has decided to close this client connection.
Aug 18, 2015 7:00:07 PM ServerCommunicatorAdmin reqIncoming
WARNING: The server has decided to close this client connection.
CHROMOSOME COST = 701736.64
ELAPSED TIME: 1333235 ms.
CHROMOSOME COST = 701736.64
ELAPSED TIME: 122701 ms.
CHROMOSOME COST = 701736.64
ELAPSED TIME: 108440 ms.
CHROMOSOME COST = 701736.64
ELAPSED TIME: 92738 ms.
CHROMOSOME COST = 701736.64
ELAPSED TIME: 130582 ms.
CHROMOSOME COST = 701736.64
ELAPSED TIME: 110212 ms.
CHROMOSOME COST = 701736.64
ELAPSED TIME: 116294 ms.
CHROMOSOME COST = 701736.64
ELAPSED TIME: 116453 ms.
CHROMOSOME COST = 701736.64
ELAPSED TIME: 118111 ms.
CHROMOSOME COST = 701736.64
ELAPSED TIME: 108897 ms.
CHROMOSOME COST = 701736.64
ELAPSED TIME: 112815 ms.
CHROMOSOME COST = 701736.64
ELAPSED TIME: 109190 ms.
CHROMOSOME COST = 701736.64
ELAPSED TIME: 108495 ms.
CHROMOSOME COST = 701736.64
ELAPSED TIME: 110763 ms.
CHROMOSOME COST = 701736.64
ELAPSED TIME: 145031 ms.
CHROMOSOME COST = 701736.64
ELAPSED TIME: 111145 ms.
CHROMOSOME COST = 701736.64
ELAPSED TIME: 103227 ms.
CHROMOSOME COST = 701736.64
ELAPSED TIME: 110481 ms.
CHROMOSOME COST = 701736.64
ELAPSED TIME: 137946 ms.
CHROMOSOME COST = 701736.64
ELAPSED TIME: 127338 ms.
CHROMOSOME COST = 701736.64
ELAPSED TIME: 119984 ms.
CHROMOSOME COST = 701736.64
ELAPSED TIME: 119280 ms.
CHROMOSOME COST = 701736.64
ELAPSED TIME: 151059 ms.
CHROMOSOME COST = 701736.64
ELAPSED TIME: 155410 ms.
CHROMOSOME COST = 701736.64
ELAPSED TIME: 156985 ms.
CHROMOSOME COST = 701736.64
ELAPSED TIME: 153302 ms.
CHROMOSOME COST = 701736.64
ELAPSED TIME: 113327 ms.
CHROMOSOME COST = 701736.64
ELAPSED TIME: 130428 ms.
CHROMOSOME COST = 701736.64
ELAPSED TIME: 125171 ms.
CHROMOSOME COST = 701736.64
ELAPSED TIME: 113535 ms.
CHROMOSOME COST = 701736.64
ELAPSED TIME: 109153 ms.
CHROMOSOME COST = 701736.64
ELAPSED TIME: 106206 ms.
CHROMOSOME COST = 701736.64
ELAPSED TIME: 117540 ms.
CHROMOSOME COST = 701736.64
ELAPSED TIME: 131652 ms.
CHROMOSOME COST = 701736.64
ELAPSED TIME: 114059 ms.
CHROMOSOME COST = 701736.64
ELAPSED TIME: 113381 ms.
CHROMOSOME COST = 701736.64
ELAPSED TIME: 142153 ms.
CHROMOSOME COST = 701736.64
ELAPSED TIME: 118452 ms.
CHROMOSOME COST = 701736.64
ELAPSED TIME: 136951 ms.
CHROMOSOME COST = 701736.64
ELAPSED TIME: 110518 ms.
CHROMOSOME COST = 701736.64
ELAPSED TIME: 107737 ms.
CHROMOSOME COST = 701736.64
ELAPSED TIME: 120497 ms.
CHROMOSOME COST = 701736.64
ELAPSED TIME: 109976 ms.
CHROMOSOME COST = 701736.64
ELAPSED TIME: 127241 ms.
CHROMOSOME COST = 701736.64
ELAPSED TIME: 106585 ms.
CHROMOSOME COST = 701736.64
ELAPSED TIME: 130922 ms.
CHROMOSOME COST = 701736.64
ELAPSED TIME: 107702 ms.
CHROMOSOME COST = 701736.64
ELAPSED TIME: 110042 ms.
CHROMOSOME COST = 701736.64
ELAPSED TIME: 126434 ms.
CHROMOSOME COST = 701736.64
ELAPSED TIME: 106932 ms.
CHROMOSOME COST = 701736.64
ELAPSED TIME: 108940 ms.
CHROMOSOME COST = 701736.64
ELAPSED TIME: 128053 ms.
CHROMOSOME COST = 701736.64
ELAPSED TIME: 108274 ms.
CHROMOSOME COST = 701736.64
ELAPSED TIME: 133509 ms.
CHROMOSOME COST = 701736.64
ELAPSED TIME: 119625 ms.
CHROMOSOME COST = 701736.64
ELAPSED TIME: 131912 ms.
CHROMOSOME COST = 701736.64
ELAPSED TIME: 122863 ms.
CHROMOSOME COST = 701736.64
ELAPSED TIME: 119910 ms.
CHROMOSOME COST = 701736.64
ELAPSED TIME: 112696 ms.
CHROMOSOME COST = 701736.64
ELAPSED TIME: 115370 ms.
CHROMOSOME COST = 701736.64
ELAPSED TIME: 121220 ms.
CHROMOSOME COST = 701736.64
ELAPSED TIME: 105486 ms.
CHROMOSOME COST = 701736.64
ELAPSED TIME: 131922 ms.
CHROMOSOME COST = 701736.64
ELAPSED TIME: 110614 ms.
CHROMOSOME COST = 701736.64
ELAPSED TIME: 112419 ms.
CHROMOSOME COST = 701736.64
ELAPSED TIME: 113985 ms.
CHROMOSOME COST = 701736.64
ELAPSED TIME: 108275 ms.
CHROMOSOME COST = 701736.64
ELAPSED TIME: 132219 ms.
CHROMOSOME COST = 701736.64
ELAPSED TIME: 103055 ms.
CHROMOSOME COST = 701736.64
ELAPSED TIME: 130266 ms.
CHROMOSOME COST = 701736.64
ELAPSED TIME: 110613 ms.
CHROMOSOME COST = 701736.64
ELAPSED TIME: 132691 ms.
CHROMOSOME COST = 701736.64
ELAPSED TIME: 109321 ms.
CHROMOSOME COST = 701736.64
ELAPSED TIME: 130429 ms.
CHROMOSOME COST = 701736.64
ELAPSED TIME: 110670 ms.
CHROMOSOME COST = 701736.64
ELAPSED TIME: 125259 ms.
CHROMOSOME COST = 701736.64
ELAPSED TIME: 108326 ms.
CHROMOSOME COST = 701736.64
ELAPSED TIME: 109578 ms.
CHROMOSOME COST = 701736.64
ELAPSED TIME: 112561 ms.
CHROMOSOME COST = 701736.64
ELAPSED TIME: 118287 ms.
CHROMOSOME COST = 701736.64
ELAPSED TIME: 111658 ms.
CHROMOSOME COST = 701736.64
ELAPSED TIME: 3370957 ms.
CHROMOSOME COST = 701736.64
ELAPSED TIME: 89355 ms.
CHROMOSOME COST = 701736.64
ELAPSED TIME: 85288 ms.
CHROMOSOME COST = 701736.64
ELAPSED TIME: 76877 ms.
CHROMOSOME COST = 701736.64
ELAPSED TIME: 80853 ms.
CHROMOSOME COST = 701736.64
ELAPSED TIME: 81261 ms.
CHROMOSOME COST = 701736.64
ELAPSED TIME: 86427 ms.
CHROMOSOME COST = 701736.64
ELAPSED TIME: 85621 ms.
CHROMOSOME COST = 701736.64
ELAPSED TIME: 90830 ms.
CHROMOSOME COST = 701736.64
ELAPSED TIME: 85704 ms.
CHROMOSOME COST = 701736.64
ELAPSED TIME: 97857 ms.
CHROMOSOME COST = 701736.64
ELAPSED TIME: 96276 ms.
CHROMOSOME COST = 701736.64
ELAPSED TIME: 119111 ms.
CHROMOSOME COST = 701736.64
ELAPSED TIME: 91123 ms.
CHROMOSOME COST = 701736.64
ELAPSED TIME: 87411 ms.
CHROMOSOME COST = 701736.64
ELAPSED TIME: 81557 ms.
CHROMOSOME COST = 701736.64
ELAPSED TIME: 85021 ms.
CHROMOSOME COST = 701736.64
ELAPSED TIME: 83582 ms.
CHROMOSOME COST = 701736.64
ELAPSED TIME: 80967 ms.
CHROMOSOME COST = 701736.64
ELAPSED TIME: 87265 ms.
CHROMOSOME COST = 701736.64
ELAPSED TIME: 96311 ms.
CHROMOSOME COST = 701736.64
ELAPSED TIME: 83476 ms.
CHROMOSOME COST = 701736.64
ELAPSED TIME: 80251 ms.
CHROMOSOME COST = 701736.64
ELAPSED TIME: 84065 ms.
CHROMOSOME COST = 701736.64
ELAPSED TIME: 87417 ms.
CHROMOSOME COST = 701736.64
ELAPSED TIME: 85437 ms.
CHROMOSOME COST = 701736.64
ELAPSED TIME: 87041 ms.
CHROMOSOME COST = 701736.64
ELAPSED TIME: 93396 ms.
CHROMOSOME COST = 701736.64
ELAPSED TIME: 92382 ms.
CHROMOSOME COST = 701736.64
ELAPSED TIME: 91242 ms.
CHROMOSOME COST = 701736.64
ELAPSED TIME: 97738 ms.
CHROMOSOME COST = 701736.64
ELAPSED TIME: 93434 ms.
CHROMOSOME COST = 701736.64
ELAPSED TIME: 91783 ms.
CHROMOSOME COST = 701736.64
ELAPSED TIME: 93883 ms.
CHROMOSOME COST = 1401654.6300000004
ELAPSED TIME: 89314 ms.
CHROMOSOME COST = 701736.64
ELAPSED TIME: 88614 ms.
CHROMOSOME COST = 701736.64
ELAPSED TIME: 91399 ms.
CHROMOSOME COST = 701736.64
ELAPSED TIME: 99345 ms.
CHROMOSOME COST = 701736.64
ELAPSED TIME: 94937 ms.
CHROMOSOME COST = 701736.64
ELAPSED TIME: 91139 ms.
CHROMOSOME COST = 701736.64
ELAPSED TIME: 84550 ms.
CHROMOSOME COST = 701736.64
ELAPSED TIME: 91391 ms.
CHROMOSOME COST = 701736.64
ELAPSED TIME: 83532 ms.
CHROMOSOME COST = 701736.64
ELAPSED TIME: 83567 ms.
CHROMOSOME COST = 701736.64
ELAPSED TIME: 86007 ms.
CHROMOSOME COST = 701736.64
ELAPSED TIME: 89802 ms.
CHROMOSOME COST = 701736.64
ELAPSED TIME: 96085 ms.
CHROMOSOME COST = 701736.64
ELAPSED TIME: 95083 ms.
CHROMOSOME COST = 701736.64
ELAPSED TIME: 85950 ms.
CHROMOSOME COST = 701736.64
ELAPSED TIME: 89032 ms.
CHROMOSOME COST = 701736.64
ELAPSED TIME: 90264 ms.
CHROMOSOME COST = 701736.64
ELAPSED TIME: 82846 ms.
CHROMOSOME COST = 701736.64
ELAPSED TIME: 88692 ms.
CHROMOSOME COST = 701736.64
ELAPSED TIME: 85029 ms.
CHROMOSOME COST = 701736.64
ELAPSED TIME: 91762 ms.
CHROMOSOME COST = 701736.64
ELAPSED TIME: 97575 ms.
CHROMOSOME COST = 701736.64
ELAPSED TIME: 84608 ms.
CHROMOSOME COST = 701736.64
ELAPSED TIME: 98339 ms.
CHROMOSOME COST = 701736.64
ELAPSED TIME: 98048 ms.
CHROMOSOME COST = 701736.64
ELAPSED TIME: 91228 ms.
CHROMOSOME COST = 701736.64
ELAPSED TIME: 90931 ms.
CHROMOSOME COST = 701736.64
ELAPSED TIME: 100768 ms.
CHROMOSOME COST = 701736.64
ELAPSED TIME: 92183 ms.
CHROMOSOME COST = 701736.64
ELAPSED TIME: 99675 ms.
CHROMOSOME COST = 701736.64
ELAPSED TIME: 89236 ms.
CHROMOSOME COST = 701736.64
ELAPSED TIME: 85762 ms.
CHROMOSOME COST = 701736.64
ELAPSED TIME: 89967 ms.
CHROMOSOME COST = 701736.64
ELAPSED TIME: 87136 ms.
CHROMOSOME COST = 701736.64
ELAPSED TIME: 90117 ms.
CHROMOSOME COST = 701736.64
ELAPSED TIME: 100076 ms.
CHROMOSOME COST = 701736.64
ELAPSED TIME: 88604 ms.
CHROMOSOME COST = 701736.64
ELAPSED TIME: 82786 ms.
CHROMOSOME COST = 701736.64
ELAPSED TIME: 86292 ms.
CHROMOSOME COST = 701736.64
ELAPSED TIME: 90845 ms.
CHROMOSOME COST = 701736.64
ELAPSED TIME: 82228 ms.
CHROMOSOME COST = 701736.64
ELAPSED TIME: 86918 ms.
CHROMOSOME COST = 701736.64
ELAPSED TIME: 89817 ms.
CHROMOSOME COST = 701736.64
ELAPSED TIME: 99925 ms.
CHROMOSOME COST = 701736.64
ELAPSED TIME: 86401 ms.
CHROMOSOME COST = 701736.64
ELAPSED TIME: 84824 ms.
CHROMOSOME COST = 701736.64
ELAPSED TIME: 93977 ms.
CHROMOSOME COST = 701736.64
ELAPSED TIME: 84467 ms.
CHROMOSOME COST = 701736.64
ELAPSED TIME: 88224 ms.
CHROMOSOME COST = 701736.64
ELAPSED TIME: 91067 ms.
CHROMOSOME COST = 701736.64
ELAPSED TIME: 84622 ms.
CHROMOSOME COST = 701736.64
ELAPSED TIME: 90613 ms.
CHROMOSOME COST = 701736.64
ELAPSED TIME: 97880 ms.
CHROMOSOME COST = 701736.64
ELAPSED TIME: 101955 ms.
CHROMOSOME COST = 701736.64
ELAPSED TIME: 99027 ms.
CHROMOSOME COST = 701736.64
ELAPSED TIME: 94456 ms.
CHROMOSOME COST = 701736.64
ELAPSED TIME: 110665 ms.
CHROMOSOME COST = 701736.64
ELAPSED TIME: 88347 ms.
CHROMOSOME COST = 701736.64
ELAPSED TIME: 83920 ms.
CHROMOSOME COST = 701736.64
ELAPSED TIME: 97490 ms.
CHROMOSOME COST = 701736.64
ELAPSED TIME: 89944 ms.
CHROMOSOME COST = 701736.64
ELAPSED TIME: 83688 ms.
CHROMOSOME COST = 701736.64
ELAPSED TIME: 90978 ms.
CHROMOSOME COST = 701736.64
ELAPSED TIME: 92299 ms.
CHROMOSOME COST = 701736.64
ELAPSED TIME: 84145 ms.
CHROMOSOME COST = 701736.64
ELAPSED TIME: 79383 ms.
CHROMOSOME COST = 701736.64
ELAPSED TIME: 88930 ms.
CHROMOSOME COST = 701736.64
ELAPSED TIME: 91183 ms.
CHROMOSOME COST = 701736.64
ELAPSED TIME: 86814 ms.
CHROMOSOME COST = 701736.64
ELAPSED TIME: 91410 ms.
CHROMOSOME COST = 701736.64
ELAPSED TIME: 91926 ms.
CHROMOSOME COST = 701736.64
ELAPSED TIME: 88426 ms.
CHROMOSOME COST = 701736.64
ELAPSED TIME: 88005 ms.
CHROMOSOME COST = 701736.64
ELAPSED TIME: 84445 ms.
CHROMOSOME COST = 701736.64
ELAPSED TIME: 86074 ms.
CHROMOSOME COST = 701736.64
ELAPSED TIME: 85638 ms.
CHROMOSOME COST = 701736.64
ELAPSED TIME: 79890 ms.
CHROMOSOME COST = 701736.64
ELAPSED TIME: 83785 ms.
CHROMOSOME COST = 701736.64
ELAPSED TIME: 82381 ms.
CHROMOSOME COST = 701736.64
ELAPSED TIME: 87740 ms.
CHROMOSOME COST = 701736.64
ELAPSED TIME: 101346 ms.
CHROMOSOME COST = 701736.64
ELAPSED TIME: 86818 ms.
CHROMOSOME COST = 701736.64
ELAPSED TIME: 83339 ms.
CHROMOSOME COST = 701736.64
ELAPSED TIME: 92982 ms.
CHROMOSOME COST = 701736.64
ELAPSED TIME: 88465 ms.
CHROMOSOME COST = 701736.64
ELAPSED TIME: 89594 ms.
CHROMOSOME COST = 701736.64
ELAPSED TIME: 89671 ms.
CHROMOSOME COST = 701736.64
ELAPSED TIME: 91860 ms.
CHROMOSOME COST = 701736.64
ELAPSED TIME: 87926 ms.
CHROMOSOME COST = 701736.64
ELAPSED TIME: 84737 ms.
CHROMOSOME COST = 701736.64
ELAPSED TIME: 87647 ms.
CHROMOSOME COST = 701736.64
ELAPSED TIME: 91140 ms.
CHROMOSOME COST = 701736.64
ELAPSED TIME: 95017 ms.
CHROMOSOME COST = 701736.64
ELAPSED TIME: 90347 ms.
CHROMOSOME COST = 701736.64
ELAPSED TIME: 85906 ms.
CHROMOSOME COST = 701736.64
ELAPSED TIME: 84370 ms.
CHROMOSOME COST = 701736.64
ELAPSED TIME: 93347 ms.
CHROMOSOME COST = 701736.64
ELAPSED TIME: 99383 ms.
CHROMOSOME COST = 701736.64
ELAPSED TIME: 86544 ms.
CHROMOSOME COST = 701736.64
ELAPSED TIME: 81112 ms.
CHROMOSOME COST = 701736.64
ELAPSED TIME: 86616 ms.
CHROMOSOME COST = 701736.64
ELAPSED TIME: 86150 ms.
CHROMOSOME COST = 701736.64
ELAPSED TIME: 100593 ms.
CHROMOSOME COST = 701736.64
ELAPSED TIME: 97707 ms.
CHROMOSOME COST = 701736.64
ELAPSED TIME: 90055 ms.
CHROMOSOME COST = 701736.64
ELAPSED TIME: 86829 ms.
CHROMOSOME COST = 701736.64
ELAPSED TIME: 91455 ms.
CHROMOSOME COST = 701736.64
ELAPSED TIME: 100497 ms.
CHROMOSOME COST = 701736.64
ELAPSED TIME: 86242 ms.
CHROMOSOME COST = 701736.64
ELAPSED TIME: 89175 ms.
CHROMOSOME COST = 701736.64
ELAPSED TIME: 97205 ms.
CHROMOSOME COST = 701736.64
ELAPSED TIME: 97682 ms.
CHROMOSOME COST = 701736.64
ELAPSED TIME: 94954 ms.
CHROMOSOME COST = 701736.64
ELAPSED TIME: 92078 ms.
CHROMOSOME COST = 701736.64
ELAPSED TIME: 95115 ms.
CHROMOSOME COST = 701736.64
ELAPSED TIME: 90656 ms.
CHROMOSOME COST = 701736.64
ELAPSED TIME: 84741 ms.
CHROMOSOME COST = 701736.64
ELAPSED TIME: 86583 ms.
CHROMOSOME COST = 701736.64
ELAPSED TIME: 86471 ms.
CHROMOSOME COST = 701736.64
ELAPSED TIME: 86338 ms.
CHROMOSOME COST = 701736.64
ELAPSED TIME: 88415 ms.
CHROMOSOME COST = 701736.64
ELAPSED TIME: 95177 ms.
CHROMOSOME COST = 701736.64
ELAPSED TIME: 83410 ms.
CHROMOSOME COST = 701736.64
ELAPSED TIME: 99169 ms.
CHROMOSOME COST = 701736.64
ELAPSED TIME: 93848 ms.
CHROMOSOME COST = 701736.64
ELAPSED TIME: 92033 ms.
CHROMOSOME COST = 701736.64
ELAPSED TIME: 102824 ms.
CHROMOSOME COST = 701736.64
ELAPSED TIME: 102586 ms.
CHROMOSOME COST = 701736.64
ELAPSED TIME: 94478 ms.
CHROMOSOME COST = 701736.64
ELAPSED TIME: 98797 ms.
CHROMOSOME COST = 701736.64
ELAPSED TIME: 92516 ms.
CHROMOSOME COST = 701736.64
ELAPSED TIME: 88049 ms.
CHROMOSOME COST = 701736.64
ELAPSED TIME: 84364 ms.
CHROMOSOME COST = 701736.64
ELAPSED TIME: 88274 ms.
CHROMOSOME COST = 701736.64
ELAPSED TIME: 90728 ms.
CHROMOSOME COST = 701736.64
ELAPSED TIME: 84081 ms.
CHROMOSOME COST = 701736.64
ELAPSED TIME: 89399 ms.
CHROMOSOME COST = 701736.64
ELAPSED TIME: 98251 ms.
CHROMOSOME COST = 701736.64
ELAPSED TIME: 88273 ms.
CHROMOSOME COST = 701736.64
ELAPSED TIME: 89546 ms.
CHROMOSOME COST = 701736.64
ELAPSED TIME: 92595 ms.
CHROMOSOME COST = 701736.64
ELAPSED TIME: 88429 ms.
CHROMOSOME COST = 701736.64
ELAPSED TIME: 86321 ms.
CHROMOSOME COST = 701736.64
ELAPSED TIME: 89284 ms.
CHROMOSOME COST = 701736.64
ELAPSED TIME: 83887 ms.
CHROMOSOME COST = 701736.64
ELAPSED TIME: 81680 ms.
CHROMOSOME COST = 701736.64
ELAPSED TIME: 80130 ms.
CHROMOSOME COST = 701736.64
ELAPSED TIME: 88126 ms.
CHROMOSOME COST = 701736.64
ELAPSED TIME: 85337 ms.
CHROMOSOME COST = 701736.64
ELAPSED TIME: 100281 ms.
CHROMOSOME COST = 701736.64
ELAPSED TIME: 86180 ms.
CHROMOSOME COST = 701736.64
ELAPSED TIME: 83076 ms.
CHROMOSOME COST = 701736.64
ELAPSED TIME: 84244 ms.
CHROMOSOME COST = 701736.64
ELAPSED TIME: 94064 ms.
CHROMOSOME COST = 701736.64
ELAPSED TIME: 89482 ms.
CHROMOSOME COST = 701736.64
ELAPSED TIME: 93740 ms.
CHROMOSOME COST = 701736.64
ELAPSED TIME: 90128 ms.
CHROMOSOME COST = 701736.64
ELAPSED TIME: 93307 ms.
CHROMOSOME COST = 701736.64
ELAPSED TIME: 98839 ms.
CHROMOSOME COST = 701736.64
ELAPSED TIME: 100543 ms.
CHROMOSOME COST = 701736.64
ELAPSED TIME: 93012 ms.
CHROMOSOME COST = 701736.64
ELAPSED TIME: 85776 ms.
CHROMOSOME COST = 701736.64
ELAPSED TIME: 90783 ms.
CHROMOSOME COST = 701736.64
ELAPSED TIME: 96086 ms.
CHROMOSOME COST = 701736.64
ELAPSED TIME: 81329 ms.
CHROMOSOME COST = 701736.64
ELAPSED TIME: 87481 ms.
CHROMOSOME COST = 701736.64
ELAPSED TIME: 84749 ms.
CHROMOSOME COST = 701736.64
ELAPSED TIME: 92998 ms.
CHROMOSOME COST = 701736.64
ELAPSED TIME: 81932 ms.
CHROMOSOME COST = 701736.64
ELAPSED TIME: 87008 ms.
CHROMOSOME COST = 701736.64
ELAPSED TIME: 96027 ms.
CHROMOSOME COST = 701736.64
ELAPSED TIME: 101225 ms.
CHROMOSOME COST = 701736.64
ELAPSED TIME: 90077 ms.
CHROMOSOME COST = 701736.64
ELAPSED TIME: 87607 ms.
CHROMOSOME COST = 701736.64
ELAPSED TIME: 93073 ms.
CHROMOSOME COST = 701736.64
ELAPSED TIME: 95968 ms.
CHROMOSOME COST = 701736.64
ELAPSED TIME: 93081 ms.
CHROMOSOME COST = 701736.64
ELAPSED TIME: 93499 ms.
CHROMOSOME COST = 701736.64
ELAPSED TIME: 90073 ms.
CHROMOSOME COST = 701736.64
ELAPSED TIME: 93587 ms.
CHROMOSOME COST = 701736.64
ELAPSED TIME: 97145 ms.
CHROMOSOME COST = 701736.64
ELAPSED TIME: 91234 ms.
CHROMOSOME COST = 701736.64
ELAPSED TIME: 98674 ms.
CHROMOSOME COST = 701736.64
ELAPSED TIME: 94706 ms.
CHROMOSOME COST = 701736.64
ELAPSED TIME: 99056 ms.
CHROMOSOME COST = 701736.64
ELAPSED TIME: 90835 ms.
CHROMOSOME COST = 701736.64
ELAPSED TIME: 91996 ms.
CHROMOSOME COST = 701736.64
ELAPSED TIME: 101385 ms.
CHROMOSOME COST = 701736.64
ELAPSED TIME: 90654 ms.
CHROMOSOME COST = 701736.64
ELAPSED TIME: 88603 ms.
CHROMOSOME COST = 701736.64
ELAPSED TIME: 94655 ms.
CHROMOSOME COST = 701736.64
ELAPSED TIME: 110652 ms.
CHROMOSOME COST = 701736.64
ELAPSED TIME: 105189 ms.
CHROMOSOME COST = 701736.64
ELAPSED TIME: 111460 ms.
CHROMOSOME COST = 701736.64
ELAPSED TIME: 99780 ms.
CHROMOSOME COST = 701736.64
ELAPSED TIME: 92066 ms.
CHROMOSOME COST = 701736.64
ELAPSED TIME: 95419 ms.
CHROMOSOME COST = 701736.64
ELAPSED TIME: 97097 ms.
CHROMOSOME COST = 701736.64
ELAPSED TIME: 95424 ms.
CHROMOSOME COST = 701736.64
ELAPSED TIME: 92226 ms.
CHROMOSOME COST = 701736.64
ELAPSED TIME: 92484 ms.
CHROMOSOME COST = 701736.64
ELAPSED TIME: 93256 ms.
CHROMOSOME COST = 701736.64
ELAPSED TIME: 113721 ms.
CHROMOSOME COST = 701736.64
ELAPSED TIME: 93285 ms.
CHROMOSOME COST = 701736.64
ELAPSED TIME: 91964 ms.
CHROMOSOME COST = 701736.64
ELAPSED TIME: 103998 ms.
CHROMOSOME COST = 701736.64
ELAPSED TIME: 85442 ms.
CHROMOSOME COST = 701736.64
ELAPSED TIME: 80218 ms.
CHROMOSOME COST = 701736.64
ELAPSED TIME: 93599 ms.
CHROMOSOME COST = 701736.64
ELAPSED TIME: 87075 ms.
CHROMOSOME COST = 701736.64
ELAPSED TIME: 84642 ms.
CHROMOSOME COST = 701736.64
ELAPSED TIME: 89528 ms.
CHROMOSOME COST = 701736.64
ELAPSED TIME: 85854 ms.
CHROMOSOME COST = 701736.64
ELAPSED TIME: 87131 ms.
CHROMOSOME COST = 701736.64
ELAPSED TIME: 91473 ms.
CHROMOSOME COST = 701736.64
ELAPSED TIME: 104101 ms.
CHROMOSOME COST = 701736.64
ELAPSED TIME: 101778 ms.
CHROMOSOME COST = 701736.64
ELAPSED TIME: 101693 ms.
CHROMOSOME COST = 701736.64
ELAPSED TIME: 106289 ms.
CHROMOSOME COST = 701736.64
ELAPSED TIME: 99663 ms.
CHROMOSOME COST = 701736.64
ELAPSED TIME: 96170 ms.
CHROMOSOME COST = 701736.64
ELAPSED TIME: 96550 ms.
CHROMOSOME COST = 701736.64
ELAPSED TIME: 94049 ms.
CHROMOSOME COST = 701736.64
ELAPSED TIME: 90168 ms.
CHROMOSOME COST = 701736.64
ELAPSED TIME: 93031 ms.
CHROMOSOME COST = 701736.64
ELAPSED TIME: 96052 ms.
CHROMOSOME COST = 701736.64
ELAPSED TIME: 90982 ms.
CHROMOSOME COST = 701736.64
ELAPSED TIME: 87100 ms.
CHROMOSOME COST = 701736.64
ELAPSED TIME: 91624 ms.
CHROMOSOME COST = 701736.64
ELAPSED TIME: 104205 ms.
CHROMOSOME COST = 701736.64
ELAPSED TIME: 104114 ms.
CHROMOSOME COST = 701736.64
ELAPSED TIME: 96769 ms.
CHROMOSOME COST = 701736.64
ELAPSED TIME: 90794 ms.
CHROMOSOME COST = 701736.64
ELAPSED TIME: 94119 ms.
CHROMOSOME COST = 701736.64
ELAPSED TIME: 89554 ms.
CHROMOSOME COST = 701736.64
ELAPSED TIME: 80158 ms.
CHROMOSOME COST = 701736.64
ELAPSED TIME: 85321 ms.
CHROMOSOME COST = 701736.64
ELAPSED TIME: 99471 ms.
CHROMOSOME COST = 701736.64
ELAPSED TIME: 103165 ms.
CHROMOSOME COST = 701736.64
ELAPSED TIME: 101316 ms.
CHROMOSOME COST = 701736.64
ELAPSED TIME: 109451 ms.
CHROMOSOME COST = 701736.64
ELAPSED TIME: 94561 ms.
CHROMOSOME COST = 701736.64
ELAPSED TIME: 87513 ms.
CHROMOSOME COST = 701736.64
ELAPSED TIME: 90542 ms.
CHROMOSOME COST = 701736.64
ELAPSED TIME: 91648 ms.
CHROMOSOME COST = 701736.64
ELAPSED TIME: 92124 ms.
CHROMOSOME COST = 701736.64
ELAPSED TIME: 87854 ms.
CHROMOSOME COST = 701736.64
ELAPSED TIME: 96547 ms.
CHROMOSOME COST = 701736.64
ELAPSED TIME: 89745 ms.
CHROMOSOME COST = 701736.64
ELAPSED TIME: 98778 ms.
CHROMOSOME COST = 701736.64
ELAPSED TIME: 89348 ms.
CHROMOSOME COST = 701736.64
ELAPSED TIME: 91040 ms.
CHROMOSOME COST = 701736.64
ELAPSED TIME: 93679 ms.
CHROMOSOME COST = 701736.64
ELAPSED TIME: 94061 ms.
CHROMOSOME COST = 701736.64
ELAPSED TIME: 90386 ms.
CHROMOSOME COST = 701736.64
ELAPSED TIME: 93404 ms.
CHROMOSOME COST = 701736.64
ELAPSED TIME: 92587 ms.
CHROMOSOME COST = 701736.64
ELAPSED TIME: 94232 ms.
CHROMOSOME COST = 701736.64
ELAPSED TIME: 90493 ms.
CHROMOSOME COST = 701736.64
ELAPSED TIME: 85152 ms.
CHROMOSOME COST = 701736.64
ELAPSED TIME: 85163 ms.
CHROMOSOME COST = 701736.64
ELAPSED TIME: 91216 ms.
CHROMOSOME COST = 701736.64
ELAPSED TIME: 106115 ms.
CHROMOSOME COST = 701736.64
ELAPSED TIME: 94487 ms.
CHROMOSOME COST = 701736.64
ELAPSED TIME: 86190 ms.
CHROMOSOME COST = 701736.64
ELAPSED TIME: 98689 ms.
CHROMOSOME COST = 701736.64
ELAPSED TIME: 90531 ms.
CHROMOSOME COST = 701736.64
ELAPSED TIME: 83367 ms.
CHROMOSOME COST = 701736.64
ELAPSED TIME: 97396 ms.
CHROMOSOME COST = 701736.64
ELAPSED TIME: 91196 ms.
CHROMOSOME COST = 701736.64
ELAPSED TIME: 90750 ms.
CHROMOSOME COST = 701736.64
ELAPSED TIME: 94818 ms.
CHROMOSOME COST = 701736.64
ELAPSED TIME: 96032 ms.
CHROMOSOME COST = 701736.64
ELAPSED TIME: 90042 ms.
CHROMOSOME COST = 701736.64
ELAPSED TIME: 83775 ms.
CHROMOSOME COST = 701736.64
ELAPSED TIME: 88634 ms.
CHROMOSOME COST = 701736.64
ELAPSED TIME: 86655 ms.
CHROMOSOME COST = 701736.64
ELAPSED TIME: 83158 ms.
CHROMOSOME COST = 701736.64
ELAPSED TIME: 86269 ms.
CHROMOSOME COST = 701736.64
ELAPSED TIME: 92196 ms.
CHROMOSOME COST = 701736.64
ELAPSED TIME: 106580 ms.
CHROMOSOME COST = 701736.64
ELAPSED TIME: 91487 ms.
CHROMOSOME COST = 701736.64
ELAPSED TIME: 90677 ms.
CHROMOSOME COST = 701736.64
ELAPSED TIME: 90888 ms.
CHROMOSOME COST = 701736.64
ELAPSED TIME: 84167 ms.
CHROMOSOME COST = 701736.64
ELAPSED TIME: 94583 ms.
CHROMOSOME COST = 701736.64
ELAPSED TIME: 97197 ms.
CHROMOSOME COST = 701736.64
ELAPSED TIME: 93016 ms.
CHROMOSOME COST = 701736.64
ELAPSED TIME: 89911 ms.
CHROMOSOME COST = 701736.64
ELAPSED TIME: 93563 ms.
CHROMOSOME COST = 701736.64
ELAPSED TIME: 95229 ms.
CHROMOSOME COST = 701736.64
ELAPSED TIME: 93134 ms.
CHROMOSOME COST = 701736.64
ELAPSED TIME: 91924 ms.
CHROMOSOME COST = 701736.64
ELAPSED TIME: 108346 ms.
CHROMOSOME COST = 701736.64
ELAPSED TIME: 92586 ms.
CHROMOSOME COST = 701736.64
ELAPSED TIME: 88983 ms.
CHROMOSOME COST = 701736.64
ELAPSED TIME: 87256 ms.
CHROMOSOME COST = 701736.64
ELAPSED TIME: 94869 ms.
CHROMOSOME COST = 701736.64
ELAPSED TIME: 90275 ms.
CHROMOSOME COST = 701736.64
ELAPSED TIME: 88627 ms.
CHROMOSOME COST = 701736.64
ELAPSED TIME: 85539 ms.
CHROMOSOME COST = 701736.64
ELAPSED TIME: 88774 ms.
CHROMOSOME COST = 701736.64
ELAPSED TIME: 87871 ms.
CHROMOSOME COST = 701736.64
ELAPSED TIME: 90326 ms.
CHROMOSOME COST = 701736.64
ELAPSED TIME: 89017 ms.
CHROMOSOME COST = 701736.64
ELAPSED TIME: 96404 ms.
CHROMOSOME COST = 701736.64
ELAPSED TIME: 97473 ms.
CHROMOSOME COST = 701736.64
ELAPSED TIME: 89623 ms.
CHROMOSOME COST = 701736.64
ELAPSED TIME: 83429 ms.
CHROMOSOME COST = 701736.64
ELAPSED TIME: 87456 ms.
CHROMOSOME COST = 701736.64
ELAPSED TIME: 95716 ms.
CHROMOSOME COST = 701736.64
ELAPSED TIME: 89751 ms.
CHROMOSOME COST = 701736.64
ELAPSED TIME: 95235 ms.
CHROMOSOME COST = 701736.64
ELAPSED TIME: 87563 ms.
CHROMOSOME COST = 701736.64
ELAPSED TIME: 93070 ms.
CHROMOSOME COST = 701736.64
ELAPSED TIME: 83141 ms.
CHROMOSOME COST = 701736.64
ELAPSED TIME: 94187 ms.
CHROMOSOME COST = 701736.64
ELAPSED TIME: 89618 ms.
CHROMOSOME COST = 701736.64
ELAPSED TIME: 90326 ms.
CHROMOSOME COST = 701736.64
ELAPSED TIME: 106093 ms.
CHROMOSOME COST = 701736.64
ELAPSED TIME: 91808 ms.
CHROMOSOME COST = 701736.64
ELAPSED TIME: 92106 ms.
CHROMOSOME COST = 701736.64
ELAPSED TIME: 83298 ms.
CHROMOSOME COST = 701736.64
ELAPSED TIME: 90470 ms.
CHROMOSOME COST = 701736.64
ELAPSED TIME: 90539 ms.
CHROMOSOME COST = 701736.64
ELAPSED TIME: 88794 ms.
CHROMOSOME COST = 701736.64
ELAPSED TIME: 102769 ms.
CHROMOSOME COST = 701736.64
ELAPSED TIME: 96763 ms.
CHROMOSOME COST = 701736.64
ELAPSED TIME: 88707 ms.
CHROMOSOME COST = 701736.64
ELAPSED TIME: 83923 ms.
CHROMOSOME COST = 701736.64
ELAPSED TIME: 95090 ms.
CHROMOSOME COST = 701736.64
ELAPSED TIME: 91264 ms.
CHROMOSOME COST = 701736.64
ELAPSED TIME: 102279 ms.
CHROMOSOME COST = 701736.64
ELAPSED TIME: 79399 ms.
CHROMOSOME COST = 701736.64
ELAPSED TIME: 89948 ms.
CHROMOSOME COST = 701736.64
ELAPSED TIME: 89760 ms.
CHROMOSOME COST = 701736.64
ELAPSED TIME: 92173 ms.
CHROMOSOME COST = 701736.64
ELAPSED TIME: 87879 ms.
CHROMOSOME COST = 701736.64
ELAPSED TIME: 82287 ms.
CHROMOSOME COST = 701736.64
ELAPSED TIME: 87235 ms.
CHROMOSOME COST = 701736.64
ELAPSED TIME: 87139 ms.
CHROMOSOME COST = 701736.64
ELAPSED TIME: 82338 ms.
CHROMOSOME COST = 701736.64
ELAPSED TIME: 85015 ms.
CHROMOSOME COST = 701736.64
ELAPSED TIME: 96377 ms.
CHROMOSOME COST = 701736.64
ELAPSED TIME: 92870 ms.
CHROMOSOME COST = 701736.64
ELAPSED TIME: 88372 ms.
CHROMOSOME COST = 701736.64
ELAPSED TIME: 77829 ms.
CHROMOSOME COST = 701736.64
ELAPSED TIME: 79800 ms.
CHROMOSOME COST = 701736.64
ELAPSED TIME: 76668 ms.
CHROMOSOME COST = 701736.64
ELAPSED TIME: 80096 ms.
CHROMOSOME COST = 701736.64
ELAPSED TIME: 85020 ms.
CHROMOSOME COST = 701736.64
ELAPSED TIME: 85035 ms.
CHROMOSOME COST = 701736.64
ELAPSED TIME: 80063 ms.
CHROMOSOME COST = 701736.64
ELAPSED TIME: 85413 ms.
CHROMOSOME COST = 701736.64
ELAPSED TIME: 89714 ms.
CHROMOSOME COST = 701736.64
ELAPSED TIME: 85073 ms.
CHROMOSOME COST = 889435.8999999999
ELAPSED TIME: 72148 ms.
CHROMOSOME COST = 701736.64
ELAPSED TIME: 84777 ms.
CHROMOSOME COST = 701736.64
ELAPSED TIME: 96109 ms.
CHROMOSOME COST = 701736.64
ELAPSED TIME: 117446 ms.
CHROMOSOME COST = 701736.64
ELAPSED TIME: 99212 ms.
CHROMOSOME COST = 701736.64
ELAPSED TIME: 91932 ms.
CHROMOSOME COST = 701736.64
ELAPSED TIME: 90414 ms.
CHROMOSOME COST = 701736.64
ELAPSED TIME: 84339 ms.
CHROMOSOME COST = 701736.64
ELAPSED TIME: 95855 ms.
CHROMOSOME COST = 701736.64
ELAPSED TIME: 92388 ms.
CHROMOSOME COST = 701736.64
ELAPSED TIME: 86546 ms.
CHROMOSOME COST = 701736.64
ELAPSED TIME: 78798 ms.
CHROMOSOME COST = 701736.64
ELAPSED TIME: 88403 ms.
CHROMOSOME COST = 701736.64
ELAPSED TIME: 91182 ms.
CHROMOSOME COST = 701736.64
ELAPSED TIME: 86666 ms.
CHROMOSOME COST = 701736.64
ELAPSED TIME: 96384 ms.
CHROMOSOME COST = 701736.64
ELAPSED TIME: 95863 ms.
CHROMOSOME COST = 701736.64
ELAPSED TIME: 88974 ms.
CHROMOSOME COST = 701736.64
ELAPSED TIME: 88771 ms.
CHROMOSOME COST = 701736.64
ELAPSED TIME: 85832 ms.
CHROMOSOME COST = 701736.64
ELAPSED TIME: 92418 ms.
CHROMOSOME COST = 701736.64
ELAPSED TIME: 87877 ms.
CHROMOSOME COST = 701736.64
ELAPSED TIME: 98831 ms.
CHROMOSOME COST = 701736.64
ELAPSED TIME: 87863 ms.
CHROMOSOME COST = 701736.64
ELAPSED TIME: 83040 ms.
CHROMOSOME COST = 701736.64
ELAPSED TIME: 91250 ms.
CHROMOSOME COST = 701736.64
ELAPSED TIME: 79309 ms.
CHROMOSOME COST = 701736.64
ELAPSED TIME: 83130 ms.
CHROMOSOME COST = 701736.64
ELAPSED TIME: 88308 ms.
CHROMOSOME COST = 701736.64
ELAPSED TIME: 89465 ms.
CHROMOSOME COST = 701736.64
ELAPSED TIME: 90073 ms.
CHROMOSOME COST = 701736.64
ELAPSED TIME: 84226 ms.
CHROMOSOME COST = 701736.64
ELAPSED TIME: 90587 ms.
CHROMOSOME COST = 701736.64
ELAPSED TIME: 87340 ms.
CHROMOSOME COST = 701736.64
ELAPSED TIME: 94369 ms.
CHROMOSOME COST = 701736.64
ELAPSED TIME: 90922 ms.
CHROMOSOME COST = 701736.64
ELAPSED TIME: 94317 ms.
CHROMOSOME COST = 701736.64
ELAPSED TIME: 86579 ms.
CHROMOSOME COST = 701736.64
ELAPSED TIME: 95525 ms.
CHROMOSOME COST = 701736.64
ELAPSED TIME: 90213 ms.
CHROMOSOME COST = 701736.64
ELAPSED TIME: 96369 ms.
CHROMOSOME COST = 701736.64
ELAPSED TIME: 83710 ms.
CHROMOSOME COST = 701736.64
ELAPSED TIME: 79128 ms.
CHROMOSOME COST = 701736.64
ELAPSED TIME: 77204 ms.
CHROMOSOME COST = 701736.64
ELAPSED TIME: 87614 ms.
CHROMOSOME COST = 701736.64
ELAPSED TIME: 82124 ms.
CHROMOSOME COST = 701736.64
ELAPSED TIME: 88038 ms.
CHROMOSOME COST = 701736.64
ELAPSED TIME: 87172 ms.
CHROMOSOME COST = 701736.64
ELAPSED TIME: 81482 ms.
CHROMOSOME COST = 701736.64
ELAPSED TIME: 81965 ms.
CHROMOSOME COST = 701736.64
ELAPSED TIME: 85518 ms.
CHROMOSOME COST = 701736.64
ELAPSED TIME: 85473 ms.
CHROMOSOME COST = 701736.64
ELAPSED TIME: 95678 ms.
CHROMOSOME COST = 701736.64
ELAPSED TIME: 88226 ms.
CHROMOSOME COST = 701736.64
ELAPSED TIME: 85168 ms.
CHROMOSOME COST = 701736.64
ELAPSED TIME: 88895 ms.
CHROMOSOME COST = 701736.64
ELAPSED TIME: 80252 ms.
CHROMOSOME COST = 701736.64
ELAPSED TIME: 84047 ms.
CHROMOSOME COST = 701736.64
ELAPSED TIME: 93657 ms.
CHROMOSOME COST = 701736.64
ELAPSED TIME: 95049 ms.
CHROMOSOME COST = 701736.64
ELAPSED TIME: 80509 ms.
CHROMOSOME COST = 701736.64
ELAPSED TIME: 88337 ms.
CHROMOSOME COST = 701736.64
ELAPSED TIME: 105372 ms.
CHROMOSOME COST = 701736.64
ELAPSED TIME: 95552 ms.
CHROMOSOME COST = 701736.64
ELAPSED TIME: 96366 ms.
CHROMOSOME COST = 701736.64
ELAPSED TIME: 101149 ms.
CHROMOSOME COST = 701736.64
ELAPSED TIME: 99693 ms.
CHROMOSOME COST = 701736.64
ELAPSED TIME: 97605 ms.
CHROMOSOME COST = 701736.64
ELAPSED TIME: 103953 ms.
CHROMOSOME COST = 701736.64
ELAPSED TIME: 134186 ms.
CHROMOSOME COST = 701736.64
ELAPSED TIME: 140059 ms.
CHROMOSOME COST = 701736.64
ELAPSED TIME: 121710 ms.
CHROMOSOME COST = 701736.64
ELAPSED TIME: 102239 ms.
CHROMOSOME COST = 701736.64
ELAPSED TIME: 96289 ms.
CHROMOSOME COST = 701736.64
ELAPSED TIME: 102551 ms.
CHROMOSOME COST = 701736.64
ELAPSED TIME: 95167 ms.
CHROMOSOME COST = 701736.64
ELAPSED TIME: 101804 ms.
CHROMOSOME COST = 701736.64
ELAPSED TIME: 103413 ms.
CHROMOSOME COST = 701736.64
ELAPSED TIME: 108093 ms.
CHROMOSOME COST = 701736.64
ELAPSED TIME: 112344 ms.
CHROMOSOME COST = 701736.64
ELAPSED TIME: 99542 ms.
CHROMOSOME COST = 701736.64
ELAPSED TIME: 105044 ms.
CHROMOSOME COST = 701736.64
ELAPSED TIME: 100982 ms.
CHROMOSOME COST = 701736.64
ELAPSED TIME: 94696 ms.
CHROMOSOME COST = 701736.64
ELAPSED TIME: 114259 ms.
CHROMOSOME COST = 701736.64
ELAPSED TIME: 97440 ms.
CHROMOSOME COST = 701736.64
ELAPSED TIME: 108936 ms.
CHROMOSOME COST = 701736.64
ELAPSED TIME: 103536 ms.
CHROMOSOME COST = 701736.64
ELAPSED TIME: 94726 ms.
CHROMOSOME COST = 701736.64
ELAPSED TIME: 93539 ms.
CHROMOSOME COST = 701736.64
ELAPSED TIME: 99084 ms.
CHROMOSOME COST = 701736.64
ELAPSED TIME: 99894 ms.
CHROMOSOME COST = 701736.64
ELAPSED TIME: 93384 ms.
CHROMOSOME COST = 701736.64
ELAPSED TIME: 98834 ms.
CHROMOSOME COST = 701736.64
ELAPSED TIME: 94002 ms.
CHROMOSOME COST = 701736.64
ELAPSED TIME: 108511 ms.
CHROMOSOME COST = 701736.64
ELAPSED TIME: 103999 ms.
CHROMOSOME COST = 701736.64
ELAPSED TIME: 93708 ms.
CHROMOSOME COST = 701736.64
ELAPSED TIME: 103870 ms.
CHROMOSOME COST = 701736.64
ELAPSED TIME: 113614 ms.
CHROMOSOME COST = 701736.64
ELAPSED TIME: 102874 ms.
CHROMOSOME COST = 701736.64
ELAPSED TIME: 97479 ms.
CHROMOSOME COST = 701736.64
ELAPSED TIME: 103407 ms.
CHROMOSOME COST = 701736.64
ELAPSED TIME: 102128 ms.
CHROMOSOME COST = 701736.64
ELAPSED TIME: 104927 ms.
CHROMOSOME COST = 701736.64
ELAPSED TIME: 96033 ms.
CHROMOSOME COST = 701736.64
ELAPSED TIME: 97505 ms.
CHROMOSOME COST = 701736.64
ELAPSED TIME: 98037 ms.
CHROMOSOME COST = 701736.64
ELAPSED TIME: 116481 ms.
CHROMOSOME COST = 701736.64
ELAPSED TIME: 106099 ms.
CHROMOSOME COST = 701736.64
ELAPSED TIME: 99468 ms.
CHROMOSOME COST = 701736.64
ELAPSED TIME: 102599 ms.
CHROMOSOME COST = 701736.64
ELAPSED TIME: 109716 ms.
CHROMOSOME COST = 701736.64
ELAPSED TIME: 113691 ms.
CHROMOSOME COST = 701736.64
ELAPSED TIME: 102654 ms.
CHROMOSOME COST = 701736.64
ELAPSED TIME: 112505 ms.
CHROMOSOME COST = 701736.64
ELAPSED TIME: 118091 ms.
CHROMOSOME COST = 701736.64
ELAPSED TIME: 128583 ms.
CHROMOSOME COST = 701736.64
ELAPSED TIME: 110210 ms.
CHROMOSOME COST = 701736.64
ELAPSED TIME: 108993 ms.
CHROMOSOME COST = 701736.64
ELAPSED TIME: 115101 ms.
CHROMOSOME COST = 701736.64
ELAPSED TIME: 108518 ms.
CHROMOSOME COST = 701736.64
ELAPSED TIME: 115056 ms.
CHROMOSOME COST = 701736.64
ELAPSED TIME: 111611 ms.
CHROMOSOME COST = 701736.64
ELAPSED TIME: 109589 ms.
CHROMOSOME COST = 701736.64
ELAPSED TIME: 109515 ms.
CHROMOSOME COST = 701736.64
ELAPSED TIME: 111489 ms.
CHROMOSOME COST = 701736.64
ELAPSED TIME: 114151 ms.
CHROMOSOME COST = 701736.64
ELAPSED TIME: 108539 ms.
CHROMOSOME COST = 701736.64
ELAPSED TIME: 102988 ms.
CHROMOSOME COST = 701736.64
ELAPSED TIME: 109608 ms.
CHROMOSOME COST = 701736.64
ELAPSED TIME: 116024 ms.
CHROMOSOME COST = 701736.64
ELAPSED TIME: 121030 ms.
CHROMOSOME COST = 701736.64
ELAPSED TIME: 105815 ms.
CHROMOSOME COST = 701736.64
ELAPSED TIME: 119061 ms.
CHROMOSOME COST = 701736.64
ELAPSED TIME: 120628 ms.
CHROMOSOME COST = 701736.64
ELAPSED TIME: 122342 ms.
CHROMOSOME COST = 701736.64
ELAPSED TIME: 113545 ms.
CHROMOSOME COST = 701736.64
ELAPSED TIME: 112536 ms.
CHROMOSOME COST = 701736.64
ELAPSED TIME: 108135 ms.
CHROMOSOME COST = 701736.64
ELAPSED TIME: 105784 ms.
CHROMOSOME COST = 701736.64
ELAPSED TIME: 101680 ms.
CHROMOSOME COST = 701736.64
ELAPSED TIME: 110913 ms.
CHROMOSOME COST = 701736.64
ELAPSED TIME: 111371 ms.
CHROMOSOME COST = 701736.64
ELAPSED TIME: 96801 ms.
CHROMOSOME COST = 701736.64
ELAPSED TIME: 106597 ms.
CHROMOSOME COST = 701736.64
ELAPSED TIME: 100009 ms.
CHROMOSOME COST = 701736.64
ELAPSED TIME: 101675 ms.
CHROMOSOME COST = 701736.64
ELAPSED TIME: 92167 ms.
CHROMOSOME COST = 701736.64
ELAPSED TIME: 103659 ms.
CHROMOSOME COST = 701736.64
ELAPSED TIME: 110157 ms.
CHROMOSOME COST = 701736.64
ELAPSED TIME: 101225 ms.
CHROMOSOME COST = 701736.64
ELAPSED TIME: 103925 ms.
CHROMOSOME COST = 701736.64
ELAPSED TIME: 109777 ms.
CHROMOSOME COST = 701736.64
ELAPSED TIME: 107100 ms.
CHROMOSOME COST = 701736.64
ELAPSED TIME: 102767 ms.
CHROMOSOME COST = 701736.64
ELAPSED TIME: 105557 ms.
CHROMOSOME COST = 701736.64
ELAPSED TIME: 125491 ms.
CHROMOSOME COST = 701736.64
ELAPSED TIME: 202181 ms.
CHROMOSOME COST = 701736.64
ELAPSED TIME: 138609 ms.

